DROP TABLE ACCOUNT_LIST;                                                        
DROP SEQUENCE ACCOUNT_LIST_S1;                                                  
DROP TABLE ADDRESS;                                                             
DROP INDEX ADDRESS_N1;                                                          
DROP INDEX ADDRESS_N2;                                                          
DROP SEQUENCE ADDRESS_S1;                                                       
DROP TABLE AIRPORT;                                                             
DROP SEQUENCE AIRPORT_S1;                                                       
DROP INDEX CLOOKUP_U1;                                                          
DROP TABLE COMMON_LOOKUP;                                                       
DROP SEQUENCE COMMON_LOOKUP_S1;                                                 
DROP TABLE CONTACT;                                                             
DROP PROCEDURE CONTACT_INSERT;                                                  
DROP PROCEDURE CONTACT_INSERT_LAB;                                              
DROP INDEX CONTACT_N1;                                                          
DROP INDEX CONTACT_N2;                                                          
DROP SEQUENCE CONTACT_S1;                                                       
DROP VIEW CURRENT_RENTAL;                                                       
DROP VIEW CURRENT_RENTAL_LAB;                                                   
DROP TABLE DEPARTMENT;                                                          
DROP INDEX DEPARTMENT_PK;                                                       
DROP SEQUENCE DEPARTMENT_S;                                                     
DROP FUNCTION DROP_TABLE;                                                       
DROP FUNCTION DROP_TYPES;                                                       
DROP TABLE EMPLOYEE;                                                            
DROP INDEX EMPLOYEE_PK;                                                         
DROP SEQUENCE EMPLOYEE_S;                                                       
DROP FUNCTION GET_TABLE_COLUMN_LIST;                                            
DROP TABLE ITEM;                                                                
DROP SEQUENCE ITEM_S1;                                                          
DROP TABLE MEMBER;                                                              
DROP INDEX MEMBER_N1;                                                           
DROP SEQUENCE MEMBER_S1;                                                        
DROP TABLE MOCK_CALENDAR;                                                       
DROP INDEX NATURAL_KEY;                                                         
DROP INDEX NK_AIRPORT;                                                          
DROP INDEX PK_ACCOUNT_LIST_1;                                                   
DROP INDEX PK_ADDRESS_1;                                                        
DROP INDEX PK_AIRPORT_1;                                                        
DROP INDEX PK_CLOOKUP_1;                                                        
DROP INDEX PK_CONTACT_1;                                                        
DROP INDEX PK_ITEM_1;                                                           
DROP INDEX PK_MEMBER_1;                                                         
DROP INDEX PK_PRICE;                                                            
DROP INDEX PK_RENTAL_1;                                                         
DROP INDEX PK_RENTAL_ITEM_1;                                                    
DROP INDEX PK_SYSTEM_USER_1;                                                    
DROP INDEX PK_S_ADDRESS_1;                                                      
DROP INDEX PK_TELEPHONE_1;                                                      
DROP INDEX PK_TRANSACTION_1;                                                    
DROP TABLE PRICE;                                                               
DROP SEQUENCE PRICE_S;                                                          
DROP TABLE RENTAL;                                                              
DROP TABLE RENTAL_ITEM;                                                         
DROP SEQUENCE RENTAL_ITEM_S1;                                                   
DROP SEQUENCE RENTAL_S1;                                                        
DROP TABLE SALARY;                                                              
DROP INDEX SALARY_PK;                                                           
DROP SEQUENCE SALARY_S;                                                         
DROP FUNCTION SAMPLE_FUNCTION;                                                  
DROP PACKAGE SAMPLE_PACKAGE;                                                    
DROP PROCEDURE SAMPLE_PROCEDURE;                                                
DROP PROCEDURE SEED_ACCOUNT_LIST;                                               
DROP TABLE STREET_ADDRESS;                                                      
DROP SEQUENCE STREET_ADDRESS_S1;                                                
DROP TABLE SYSTEM_USER;                                                         
DROP SEQUENCE SYSTEM_USER_S1;                                                   
DROP TABLE TELEPHONE;                                                           
DROP INDEX TELEPHONE_N1;                                                        
DROP INDEX TELEPHONE_N2;                                                        
DROP INDEX TELEPHONE_N3;                                                        
DROP SEQUENCE TELEPHONE_S1;                                                     
DROP TABLE TRANSACTION;                                                         
DROP SEQUENCE TRANSACTION_S1;                                                   
DROP TABLE TRANSACTION_UPLOAD;                                                  
DROP FUNCTION TYPE_DEPENDENTS;                                                  
DROP PROCEDURE UPDATE_MEMBER_ACCOUNT;                                           
DROP INDEX UQ_SYSTEM_USER_1;                                                    

PL/SQL procedure successfully completed.

