SQL> 
SQL> -- --------------------------------------------------------
SQL> --  Step #1
SQL> --  -------
SQL> --  Alter RENTAL_ITEM Table
SQL> -- --------------------------------------------------------
SQL> ALTER TABLE RENTAL_ITEM
  2  ADD
  3  	 (
  4  	     RENTAL_ITEM_PRICE NUMBER,
  5  	     RENTAL_ITEM_TYPE NUMBER
  6  	 );

Table altered.

SQL> 
SQL> ALTER TABLE RENTAL_ITEM
  2  ADD
  3  	 (
  4  	     CONSTRAINT FK_RENTAL_ITEM_5 FOREIGN KEY(RENTAL_ITEM_TYPE) REFERENCES COMMON_LOOKUP(COMMON_LOOKUP_ID)
  5  	 );

Table altered.

SQL> 
SQL> -- Test Query
SQL> SET NULL ''
SQL> COLUMN table_name	 FORMAT A14
SQL> COLUMN column_id	 FORMAT 9999
SQL> COLUMN column_name  FORMAT A22
SQL> COLUMN data_type	 FORMAT A12
SQL> SELECT   table_name
  2  ,	      column_id
  3  ,	      column_name
  4  ,	      CASE
  5  		WHEN nullable = 'N' THEN 'NOT NULL'
  6  		ELSE ''
  7  	      END AS nullable
  8  ,	      CASE
  9  		WHEN data_type IN ('CHAR','VARCHAR2','NUMBER') THEN
 10  		  data_type||'('||data_length||')'
 11  		ELSE
 12  		  data_type
 13  	      END AS data_type
 14  FROM     user_tab_columns
 15  WHERE    table_name = 'RENTAL_ITEM'
 16  ORDER BY 2;

                         Column                                                 
Table Name     COLUMN_ID Name                   NULLABLE DATA_TYPE              
-------------- --------- ---------------------- -------- ------------           
RENTAL_ITEM            1 RENTAL_ITEM_ID         NOT NULL NUMBER(22)             
RENTAL_ITEM            2 RENTAL_ID              NOT NULL NUMBER(22)             
RENTAL_ITEM            3 ITEM_ID                NOT NULL NUMBER(22)             
RENTAL_ITEM            4 CREATED_BY             NOT NULL NUMBER(22)             
RENTAL_ITEM            5 CREATION_DATE          NOT NULL DATE                   
RENTAL_ITEM            6 LAST_UPDATED_BY        NOT NULL NUMBER(22)             
RENTAL_ITEM            7 LAST_UPDATE_DATE       NOT NULL DATE                   
RENTAL_ITEM            8 RENTAL_ITEM_PRICE               NUMBER(22)             
RENTAL_ITEM            9 RENTAL_ITEM_TYPE                NUMBER(22)             

9 rows selected.

SQL> 
SQL> -- --------------------------------------------------------
SQL> --  Step #2
SQL> --  -------
SQL> --  Create PRICE table
SQL> -- --------------------------------------------------------
SQL> CREATE TABLE PRICE (
  2  	  PRICE_ID	      INTEGER	  CONSTRAINT PK_PRICE PRIMARY KEY   NOT NULL
  3  ,	  ITEM_ID	      INTEGER	  CONSTRAINT NN_PRICE_1 	    NOT NULL
  4  ,	  PRICE_TYPE	      INTEGER					    NULL
  5  ,	  ACTIVE_FLAG	      VARCHAR2(1)				    NOT NULL
  6  ,	  START_DATE	      DATE	  CONSTRAINT NN_PRICE_3 	    NOT NULL
  7  ,	  END_DATE	      DATE					    NULL
  8  ,	  AMOUNT	      INTEGER	  CONSTRAINT NN_PRICE_4 	    NOT NULL
  9  ,	  CREATED_BY	      INTEGER	  CONSTRAINT NN_PRICE_5 	    NOT NULL
 10  ,	  CREATION_DATE       DATE	  CONSTRAINT NN_PRICE_6 	    NOT NULL
 11  ,	  LAST_UPDATED_BY     INTEGER	  CONSTRAINT NN_PRICE_7 	    NOT NULL
 12  ,	  LAST_UPDATE_DATE    DATE	  CONSTRAINT NN_PRICE_8 	    NOT NULL
 13  ,	  CONSTRAINT YN_PRICE CHECK(ACTIVE_FLAG IN ('Y','N'))
 14  ,	  CONSTRAINT FK_PRICE_1 FOREIGN KEY(ITEM_ID) REFERENCES ITEM(ITEM_ID)
 15  ,	  CONSTRAINT FK_PRICE_2 FOREIGN KEY(PRICE_TYPE) REFERENCES COMMON_LOOKUP(COMMON_LOOKUP_ID)
 16  ,	  CONSTRAINT FK_PRICE_3 FOREIGN KEY(CREATED_BY) REFERENCES SYSTEM_USER(SYSTEM_USER_ID)
 17  ,	  CONSTRAINT FK_PRICE_4 FOREIGN KEY(LAST_UPDATED_BY) REFERENCES SYSTEM_USER(SYSTEM_USER_ID)
 18  );

Table created.

SQL> 
SQL> -- Test Query
SQL> SET NULL ''
SQL> COLUMN table_name	 FORMAT A14
SQL> COLUMN column_id	 FORMAT 9999
SQL> COLUMN column_name  FORMAT A22
SQL> COLUMN data_type	 FORMAT A12
SQL> SELECT   table_name
  2  ,	      column_id
  3  ,	      column_name
  4  ,	      CASE
  5  		WHEN nullable = 'N' THEN 'NOT NULL'
  6  		ELSE ''
  7  	      END AS nullable
  8  ,	      CASE
  9  		WHEN data_type IN ('CHAR','VARCHAR2','NUMBER') THEN
 10  		  data_type||'('||data_length||')'
 11  		ELSE
 12  		  data_type
 13  	      END AS data_type
 14  FROM     user_tab_columns
 15  WHERE    table_name = 'PRICE'
 16  ORDER BY 2;

                         Column                                                 
Table Name     COLUMN_ID Name                   NULLABLE DATA_TYPE              
-------------- --------- ---------------------- -------- ------------           
PRICE                  1 PRICE_ID               NOT NULL NUMBER(22)             
PRICE                  2 ITEM_ID                NOT NULL NUMBER(22)             
PRICE                  3 PRICE_TYPE                      NUMBER(22)             
PRICE                  4 ACTIVE_FLAG            NOT NULL VARCHAR2(1)            
PRICE                  5 START_DATE             NOT NULL DATE                   
PRICE                  6 END_DATE                        DATE                   
PRICE                  7 AMOUNT                 NOT NULL NUMBER(22)             
PRICE                  8 CREATED_BY             NOT NULL NUMBER(22)             
PRICE                  9 CREATION_DATE          NOT NULL DATE                   
PRICE                 10 LAST_UPDATED_BY        NOT NULL NUMBER(22)             
PRICE                 11 LAST_UPDATE_DATE       NOT NULL DATE                   

11 rows selected.

SQL> 
SQL> -- Test Constraint
SQL> COLUMN constraint_name   FORMAT A16
SQL> COLUMN search_condition  FORMAT A30
SQL> SELECT   uc.constraint_name
  2  ,	      uc.search_condition
  3  FROM     user_constraints uc INNER JOIN user_cons_columns ucc
  4  ON       uc.table_name = ucc.table_name
  5  AND      uc.constraint_name = ucc.constraint_name
  6  WHERE    uc.table_name = UPPER('price')
  7  AND      ucc.column_name = UPPER('active_flag')
  8  AND      uc.constraint_name = UPPER('yn_price')
  9  AND      uc.constraint_type = 'C';

Constraint Name  Search Condition                                               
---------------- ------------------------------                                 
YN_PRICE         ACTIVE_FLAG IN ('Y','N')                                       

1 row selected.

SQL> 
SQL> -- --------------------------------------------------------
SQL> --  Step #3 - Part #1
SQL> --  -------
SQL> --  Rename the ITEM_RELEASE_DATE column of the ITEM table to RELEASE_DATE
SQL> -- --------------------------------------------------------
SQL> ALTER TABLE ITEM
  2  	 RENAME COLUMN ITEM_RELEASE_DATE TO RELEASE_DATE;

Table altered.

SQL> 
SQL> -- Test Query
SQL> SET NULL ''
SQL> COLUMN table_name	 FORMAT A14
SQL> COLUMN column_id	 FORMAT 9999
SQL> COLUMN column_name  FORMAT A22
SQL> COLUMN data_type	 FORMAT A12
SQL> SELECT   table_name
  2  ,	      column_id
  3  ,	      column_name
  4  ,	      CASE
  5  		WHEN nullable = 'N' THEN 'NOT NULL'
  6  		ELSE ''
  7  	      END AS nullable
  8  ,	      CASE
  9  		WHEN data_type IN ('CHAR','VARCHAR2','NUMBER') THEN
 10  		  data_type||'('||data_length||')'
 11  		ELSE
 12  		  data_type
 13  	      END AS data_type
 14  FROM     user_tab_columns
 15  WHERE    table_name = 'ITEM'
 16  ORDER BY 2;

                         Column                                                 
Table Name     COLUMN_ID Name                   NULLABLE DATA_TYPE              
-------------- --------- ---------------------- -------- ------------           
ITEM                   1 ITEM_ID                NOT NULL NUMBER(22)             
ITEM                   2 ITEM_BARCODE           NOT NULL VARCHAR2(14)           
ITEM                   3 ITEM_TYPE              NOT NULL NUMBER(22)             
ITEM                   4 ITEM_TITLE             NOT NULL VARCHAR2(60)           
ITEM                   5 ITEM_SUBTITLE                   VARCHAR2(60)           
ITEM                   6 ITEM_RATING            NOT NULL VARCHAR2(8)            
ITEM                   7 RELEASE_DATE           NOT NULL DATE                   
ITEM                   8 CREATED_BY             NOT NULL NUMBER(22)             
ITEM                   9 CREATION_DATE          NOT NULL DATE                   
ITEM                  10 LAST_UPDATED_BY        NOT NULL NUMBER(22)             
ITEM                  11 LAST_UPDATE_DATE       NOT NULL DATE                   

11 rows selected.

SQL> 
SQL> -- --------------------------------------------------------
SQL> --  Step #3 - Part #2
SQL> --  -------
SQL> --  Insert three new DVD releases into the ITEM table
SQL> -- --------------------------------------------------------
SQL> INSERT INTO ITEM
  2  	 VALUES (item_s1.nextval, 0705632085944, 1, 'Tron', '', 'PG-13', (TRUNC(SYSDATE) - 1), 1, SYSDATE, 1, SYSDATE);

1 row created.

SQL> INSERT INTO ITEM
  2  	 VALUES (item_s1.nextval, 0705632085945, 1, 'Ender''s Game', '', 'PG-13', (TRUNC(SYSDATE) - 1), 1, SYSDATE, 1, SYSDATE);

1 row created.

SQL> INSERT INTO ITEM
  2  	 VALUES (item_s1.nextval, 0705632085946, 1, 'Elysium', '', 'PG-13', (TRUNC(SYSDATE) - 1), 1, SYSDATE, 1, SYSDATE);

1 row created.

SQL> 
SQL> -- Test Query
SQL> SELECT   i.item_title
  2  ,	      SYSDATE AS today
  3  ,	      i.release_date
  4  FROM     item i
  5  WHERE   (SYSDATE - i.release_date) < 31;

Item Title                 TODAY              RELEASE_DATE                      
-------------------------- ------------------ ------------------                
Tron                       19-DEC-18          18-DEC-18                         
Ender's Game               19-DEC-18          18-DEC-18                         
Elysium                    19-DEC-18          18-DEC-18                         

3 rows selected.

SQL> 
SQL> -- --------------------------------------------------------
SQL> --  Step #3 - Part #3
SQL> --  -------
SQL> --  Insert a new member account with three contacts
SQL> -- --------------------------------------------------------
SQL> INSERT INTO MEMBER
  2  	 VALUES (member_s1.nextval,
  3  	 (SELECT COMMON_LOOKUP_ID FROM COMMON_LOOKUP WHERE COMMON_LOOKUP_CONTEXT = 'MEMBER' AND COMMON_LOOKUP_TYPE = 'GROUP'),
  4  	 'US00011',
  5  	 '6011 0000 0000 0078',
  6  	 (SELECT COMMON_LOOKUP_ID FROM COMMON_LOOKUP WHERE COMMON_LOOKUP_CONTEXT = 'MEMBER' AND COMMON_LOOKUP_TYPE = 'DISCOVER_CARD'),
  7  	 1,
  8  	 SYSDATE,
  9  	 1,
 10  	 SYSDATE);

1 row created.

SQL> 
SQL> -- Insert Harry Potter
SQL> INSERT INTO CONTACT
  2  	 VALUES (contact_s1.nextval,
  3  	 member_s1.currval,
  4  	 (SELECT COMMON_LOOKUP_ID FROM COMMON_LOOKUP WHERE COMMON_LOOKUP_CONTEXT = 'CONTACT' AND COMMON_LOOKUP_TYPE = 'CUSTOMER'),
  5  	 'Harry',
  6  	 '',
  7  	 'Potter',
  8  	 1,
  9  	 SYSDATE,
 10  	 1,
 11  	 SYSDATE);

1 row created.

SQL> 
SQL> INSERT INTO ADDRESS
  2  	 VALUES (address_s1.nextval,
  3  	 contact_s1.currval,
  4  	 (SELECT COMMON_LOOKUP_ID FROM COMMON_LOOKUP WHERE COMMON_LOOKUP_CONTEXT = 'MULTIPLE' AND COMMON_LOOKUP_TYPE = 'HOME'),
  5  	 'Provo',
  6  	 'Utah',
  7  	 '84604',
  8  	 1,
  9  	 SYSDATE,
 10  	 1,
 11  	 SYSDATE
 12  	 );

1 row created.

SQL> 
SQL> INSERT INTO STREET_ADDRESS
  2  	 VALUES (street_address_s1.nextval,
  3  	 address_s1.currval,
  4  	 '900 E, 300 N',
  5  	 1,
  6  	 SYSDATE,
  7  	 1,
  8  	 SYSDATE
  9  	 );

1 row created.

SQL> 
SQL> INSERT INTO TELEPHONE
  2  	 VALUES (telephone_s1.nextval,
  3  	 contact_s1.currval,
  4  	 address_s1.currval,
  5  	 (SELECT COMMON_LOOKUP_ID FROM COMMON_LOOKUP WHERE COMMON_LOOKUP_CONTEXT = 'MULTIPLE' AND COMMON_LOOKUP_TYPE = 'HOME'),
  6  	 '1',
  7  	 '801',
  8  	 '333-3333',
  9  	 1,
 10  	 SYSDATE,
 11  	 1,
 12  	 SYSDATE
 13  	 );

1 row created.

SQL> 
SQL> -- Insert Ginny Potter
SQL> INSERT INTO CONTACT
  2  	 VALUES (contact_s1.nextval,
  3  	 member_s1.currval,
  4  	 (SELECT COMMON_LOOKUP_ID FROM COMMON_LOOKUP WHERE COMMON_LOOKUP_CONTEXT = 'CONTACT' AND COMMON_LOOKUP_TYPE = 'CUSTOMER'),
  5  	 'Ginny',
  6  	 '',
  7  	 'Potter',
  8  	 1,
  9  	 SYSDATE,
 10  	 1,
 11  	 SYSDATE);

1 row created.

SQL> 
SQL> INSERT INTO ADDRESS
  2  	 VALUES (address_s1.nextval,
  3  	 contact_s1.currval,
  4  	 (SELECT COMMON_LOOKUP_ID FROM COMMON_LOOKUP WHERE COMMON_LOOKUP_CONTEXT = 'MULTIPLE' AND COMMON_LOOKUP_TYPE = 'HOME'),
  5  	 'Provo',
  6  	 'Utah',
  7  	 '84604',
  8  	 1,
  9  	 SYSDATE,
 10  	 1,
 11  	 SYSDATE
 12  	 );

1 row created.

SQL> 
SQL> INSERT INTO STREET_ADDRESS
  2  	 VALUES (street_address_s1.nextval,
  3  	 address_s1.currval,
  4  	 '900 E, 300 N',
  5  	 1,
  6  	 SYSDATE,
  7  	 1,
  8  	 SYSDATE
  9  	 );

1 row created.

SQL> 
SQL> INSERT INTO TELEPHONE
  2  	 VALUES (telephone_s1.nextval,
  3  	 contact_s1.currval,
  4  	 address_s1.currval,
  5  	 (SELECT COMMON_LOOKUP_ID FROM COMMON_LOOKUP WHERE COMMON_LOOKUP_CONTEXT = 'MULTIPLE' AND COMMON_LOOKUP_TYPE = 'HOME'),
  6  	 '1',
  7  	 '801',
  8  	 '333-3333',
  9  	 1,
 10  	 SYSDATE,
 11  	 1,
 12  	 SYSDATE
 13  	 );

1 row created.

SQL> 
SQL> -- Insert Lily Luna Potter
SQL> INSERT INTO CONTACT
  2  	 VALUES (contact_s1.nextval,
  3  	 member_s1.currval,
  4  	 (SELECT COMMON_LOOKUP_ID FROM COMMON_LOOKUP WHERE COMMON_LOOKUP_CONTEXT = 'CONTACT' AND COMMON_LOOKUP_TYPE = 'CUSTOMER'),
  5  	 'Lily',
  6  	 'Luna',
  7  	 'Potter',
  8  	 1,
  9  	 SYSDATE,
 10  	 1,
 11  	 SYSDATE);

1 row created.

SQL> 
SQL> INSERT INTO ADDRESS
  2  	 VALUES (address_s1.nextval,
  3  	 contact_s1.currval,
  4  	 (SELECT COMMON_LOOKUP_ID FROM COMMON_LOOKUP WHERE COMMON_LOOKUP_CONTEXT = 'MULTIPLE' AND COMMON_LOOKUP_TYPE = 'HOME'),
  5  	 'Provo',
  6  	 'Utah',
  7  	 '84604',
  8  	 1,
  9  	 SYSDATE,
 10  	 1,
 11  	 SYSDATE
 12  	 );

1 row created.

SQL> 
SQL> INSERT INTO STREET_ADDRESS
  2  	 VALUES (street_address_s1.nextval,
  3  	 address_s1.currval,
  4  	 '900 E, 300 N',
  5  	 1,
  6  	 SYSDATE,
  7  	 1,
  8  	 SYSDATE
  9  	 );

1 row created.

SQL> 
SQL> INSERT INTO TELEPHONE
  2  	 VALUES (telephone_s1.nextval,
  3  	 contact_s1.currval,
  4  	 address_s1.currval,
  5  	 (SELECT COMMON_LOOKUP_ID FROM COMMON_LOOKUP WHERE COMMON_LOOKUP_CONTEXT = 'MULTIPLE' AND COMMON_LOOKUP_TYPE = 'HOME'),
  6  	 '1',
  7  	 '801',
  8  	 '333-3333',
  9  	 1,
 10  	 SYSDATE,
 11  	 1,
 12  	 SYSDATE
 13  	 );

1 row created.

SQL> 
SQL> -- Test Query
SQL> COLUMN account_number  FORMAT A10	HEADING "Account|Number"
SQL> COLUMN full_name	    FORMAT A16	HEADING "Name|(Last, First MI)"
SQL> COLUMN street_address  FORMAT A14	HEADING "Street Address"
SQL> COLUMN city	    FORMAT A10	HEADING "City"
SQL> COLUMN state	    FORMAT A10	HEADING "State"
SQL> COLUMN postal_code     FORMAT A6	HEADING "Postal|Code"
SQL> SELECT   m.account_number
  2  ,	      c.last_name || ', ' || c.first_name
  3  ||       CASE
  4  		WHEN c.middle_name IS NOT NULL THEN
  5  		  ' ' || c.middle_name || ' '
  6  	      END AS full_name
  7  ,	      sa.street_address
  8  ,	      a.city
  9  ,	      a.state_province AS state
 10  ,	      a.postal_code
 11  FROM     member m INNER JOIN contact c
 12  ON       m.member_id = c.member_id INNER JOIN address a
 13  ON       c.contact_id = a.contact_id INNER JOIN street_address sa
 14  ON       a.address_id = sa.address_id INNER JOIN telephone t
 15  ON       c.contact_id = t.contact_id
 16  WHERE    c.last_name = 'Potter';

Account    Name                                                  Postal         
Number     (Last, First MI) Street Address City       State      Code           
---------- ---------------- -------------- ---------- ---------- ------         
US00011    Potter, Harry    900 E, 300 N   Provo      Utah       84604          
US00011    Potter, Ginny    900 E, 300 N   Provo      Utah       84604          
US00011    Potter, Lily Lun 900 E, 300 N   Provo      Utah       84604          
           a                                                                    
                                                                                

3 rows selected.

SQL> 
SQL> -- --------------------------------------------------------
SQL> --  Step #3 - Part #4
SQL> --  -------
SQL> --  Insert two rows into the RENTAL table with a dependent
SQL> --  row for each in the RENTAL_ITEM table; and one row into
SQL> --  the RENTAL table with two dependent rows in the RENTAL_ITEM table
SQL> -- --------------------------------------------------------
SQL> 
SQL> -- New entry for Harry Potter's rentals
SQL> INSERT INTO RENTAL
  2  	 VALUES (rental_s1.nextval,
  3  	 (SELECT CONTACT_ID FROM CONTACT WHERE FIRST_NAME LIKE 'Harry' AND LAST_NAME LIKE 'Potter'),
  4  	 TRUNC(SYSDATE),
  5  	 TRUNC(SYSDATE+1),
  6  	 1,
  7  	 SYSDATE,
  8  	 1,
  9  	 SYSDATE);

1 row created.

SQL> -- Harry Potter's rental item
SQL> INSERT INTO RENTAL_ITEM
  2  	 VALUES (rental_item_s1.nextval,
  3  	 rental_s1.currval,
  4  	 (SELECT ITEM_ID FROM ITEM WHERE (SYSDATE - ITEM.RELEASE_DATE) < 31 AND ROWNUM = 1),
  5  	 1,
  6  	 SYSDATE,
  7  	 1,
  8  	 SYSDATE,
  9  	 10,
 10  	 (SELECT COMMON_LOOKUP_ID FROM COMMON_LOOKUP WHERE COMMON_LOOKUP_CONTEXT = 'ITEM' AND COMMON_LOOKUP_TYPE = 'BLU-RAY')
 11  	 );

1 row created.

SQL> 
SQL> INSERT INTO RENTAL_ITEM
  2  	 VALUES (rental_item_s1.nextval,
  3  	 rental_s1.currval,
  4  	 (SELECT ITEM_ID FROM ITEM WHERE (SYSDATE - ITEM.RELEASE_DATE) > 360 AND ROWNUM = 1),
  5  	 1,
  6  	 SYSDATE,
  7  	 1,
  8  	 SYSDATE,
  9  	 10,
 10  	 (SELECT COMMON_LOOKUP_ID FROM COMMON_LOOKUP WHERE COMMON_LOOKUP_CONTEXT = 'ITEM' AND COMMON_LOOKUP_TYPE = 'BLU-RAY')
 11  	 );

1 row created.

SQL> 
SQL> -- New entry for Ginny Potter's rentals
SQL> INSERT INTO RENTAL
  2  	 VALUES (rental_s1.nextval,
  3  	 (SELECT CONTACT_ID FROM CONTACT WHERE FIRST_NAME LIKE 'Ginny' AND LAST_NAME LIKE 'Potter'),
  4  	 TRUNC(SYSDATE),
  5  	 TRUNC(SYSDATE+3),
  6  	 1,
  7  	 SYSDATE,
  8  	 1,
  9  	 SYSDATE);

1 row created.

SQL> -- Ginny Potter's rental item
SQL> INSERT INTO RENTAL_ITEM
  2  	 VALUES (rental_item_s1.nextval,
  3  	 rental_s1.currval,
  4  	 (SELECT ITEM_ID FROM ITEM WHERE (SYSDATE - ITEM.RELEASE_DATE) < 31 AND ROWNUM = 1),
  5  	 1,
  6  	 SYSDATE,
  7  	 1,
  8  	 SYSDATE,
  9  	 10,
 10  	 (SELECT COMMON_LOOKUP_ID FROM COMMON_LOOKUP WHERE COMMON_LOOKUP_CONTEXT = 'ITEM' AND COMMON_LOOKUP_TYPE = 'BLU-RAY')
 11  	 );

1 row created.

SQL> 
SQL> -- New entry for Lily Luna Potter's rentals
SQL> INSERT INTO RENTAL
  2  	 VALUES (rental_s1.nextval,
  3  	 (SELECT CONTACT_ID FROM CONTACT WHERE FIRST_NAME LIKE 'Lily' AND LAST_NAME LIKE 'Potter'),
  4  	 TRUNC(SYSDATE),
  5  	 TRUNC(SYSDATE+5),
  6  	 1,
  7  	 SYSDATE,
  8  	 1,
  9  	 SYSDATE);

1 row created.

SQL> -- Lily Luna Potter's rental item
SQL> INSERT INTO RENTAL_ITEM
  2  	 VALUES (rental_item_s1.nextval,
  3  	 rental_s1.currval,
  4  	 (SELECT ITEM_ID FROM ITEM WHERE (SYSDATE - ITEM.RELEASE_DATE) < 31 AND ROWNUM = 1),
  5  	 1,
  6  	 SYSDATE,
  7  	 1,
  8  	 SYSDATE,
  9  	 10,
 10  	 (SELECT COMMON_LOOKUP_ID FROM COMMON_LOOKUP WHERE COMMON_LOOKUP_CONTEXT = 'ITEM' AND COMMON_LOOKUP_TYPE = 'BLU-RAY')
 11  	 );

1 row created.

SQL> 
SQL> -- Test Query
SQL> COLUMN full_name	FORMAT A18
SQL> COLUMN rental_id	FORMAT 9999
SQL> COLUMN rental_days FORMAT A14
SQL> COLUMN rentals	FORMAT 9999
SQL> COLUMN items	FORMAT 9999
SQL> SELECT   c.last_name||', '||c.first_name||' '||c.middle_name AS full_name
  2  ,	      r.rental_id
  3  ,	     (r.return_date - r.check_out_date) || '-DAY RENTAL' AS rental_days
  4  ,	      COUNT(DISTINCT r.rental_id) AS rentals
  5  ,	      COUNT(ri.rental_item_id) AS items
  6  FROM     rental r INNER JOIN rental_item ri
  7  ON       r.rental_id = ri.rental_id INNER JOIN contact c
  8  ON       r.customer_id = c.contact_id
  9  WHERE   (SYSDATE - r.check_out_date) < 15
 10  AND      c.last_name = 'Potter'
 11  GROUP BY c.last_name||', '||c.first_name||' '||c.middle_name
 12  ,	      r.rental_id
 13  ,	     (r.return_date - r.check_out_date) || '-DAY RENTAL'
 14  ORDER BY 2;

                     Rental                                                     
                      Table                                                     
                   --------                                                     
Name                 Rental                                                     
(Last, First MI)       ID # RENTAL_DAYS    RENTALS ITEMS                        
------------------ -------- -------------- ------- -----                        
Potter, Harry          1006 1-DAY RENTAL         1     2                        
Potter, Ginny          1007 3-DAY RENTAL         1     1                        
Potter, Lily Luna      1008 5-DAY RENTAL         1     1                        

3 rows selected.

SQL> 
SQL> -- --------------------------------------------------------
SQL> --  Step #4 - Part #1
SQL> --  -------
SQL> --  Drop the COMMON_LOOKUP_N1 and COMMON_LOOKUP_U2 indexes
SQL> -- --------------------------------------------------------
SQL> 
SQL> DROP INDEX COMMON_LOOKUP_N1;

Index dropped.

SQL> DROP INDEX COMMON_LOOKUP_U2;

Index dropped.

SQL> 
SQL> -- Test Query
SQL> COLUMN table_name FORMAT A14
SQL> COLUMN index_name FORMAT A20
SQL> SELECT   table_name
  2  ,	      index_name
  3  FROM     user_indexes
  4  WHERE    table_name = 'COMMON_LOOKUP';

Table Name     Index Name                                                       
-------------- --------------------                                             
COMMON_LOOKUP  PK_CLOOKUP_1                                                     

1 row selected.

SQL> 
SQL> -- --------------------------------------------------------
SQL> --  Step #4 - Part #2-3
SQL> --  -------
SQL> --  Add three new columns to the COMMON_LOOKUP table.
SQL> -- --------------------------------------------------------
SQL> 
SQL> ALTER TABLE COMMON_LOOKUP
  2  ADD
  3  	 (
  4  	     COMMON_LOOKUP_TABLE VARCHAR2(30),
  5  	     COMMON_LOOKUP_COLUMN VARCHAR2(30),
  6  	     COMMON_LOOKUP_CODE VARCHAR2(30)
  7  	 );

Table altered.

SQL> 
SQL> -- Test Query
SQL> 	 SET NULL ''
SQL> 	 COLUMN table_name   FORMAT A14
SQL> 	 COLUMN column_id    FORMAT 9999
SQL> 	 COLUMN column_name  FORMAT A22
SQL> 	 COLUMN data_type    FORMAT A12
SQL> 	 SELECT   table_name
  2  	 ,	  column_id
  3  	 ,	  column_name
  4  	 ,	  CASE
  5  		 WHEN nullable = 'N' THEN 'NOT NULL'
  6  		 ELSE ''
  7  		 END AS nullable
  8  	 ,	  CASE
  9  		 WHEN data_type IN ('CHAR','VARCHAR2','NUMBER') THEN
 10  		     data_type||'('||data_length||')'
 11  		 ELSE
 12  		     data_type
 13  		 END AS data_type
 14  	 FROM	  user_tab_columns
 15  	 WHERE	  table_name = 'COMMON_LOOKUP'
 16  	 ORDER BY 2;

                         Column                                                 
Table Name     COLUMN_ID Name                   NULLABLE DATA_TYPE              
-------------- --------- ---------------------- -------- ------------           
COMMON_LOOKUP          1 COMMON_LOOKUP_ID       NOT NULL NUMBER(22)             
COMMON_LOOKUP          2 COMMON_LOOKUP_CONTEXT  NOT NULL VARCHAR2(30)           
COMMON_LOOKUP          3 COMMON_LOOKUP_TYPE     NOT NULL VARCHAR2(30)           
COMMON_LOOKUP          4 COMMON_LOOKUP_MEANING  NOT NULL VARCHAR2(30)           
COMMON_LOOKUP          5 CREATED_BY             NOT NULL NUMBER(22)             
COMMON_LOOKUP          6 CREATION_DATE          NOT NULL DATE                   
COMMON_LOOKUP          7 LAST_UPDATED_BY        NOT NULL NUMBER(22)             
COMMON_LOOKUP          8 LAST_UPDATE_DATE       NOT NULL DATE                   
COMMON_LOOKUP          9 COMMON_LOOKUP_TABLE             VARCHAR2(30)           
COMMON_LOOKUP         10 COMMON_LOOKUP_COLUMN            VARCHAR2(30)           
COMMON_LOOKUP         11 COMMON_LOOKUP_CODE              VARCHAR2(30)           

11 rows selected.

SQL> 
SQL> -- Verify before updates
SQL> 	 COLUMN common_lookup_context  FORMAT A14  HEADING "Common|Lookup Context"
SQL> 	 COLUMN common_lookup_table    FORMAT A12  HEADING "Common|Lookup Table"
SQL> 	 COLUMN common_lookup_column   FORMAT A18  HEADING "Common|Lookup Column"
SQL> 	 COLUMN common_lookup_type     FORMAT A18  HEADING "Common|Lookup Type"
SQL> 	 SELECT   common_lookup_context
  2  	 ,	  common_lookup_table
  3  	 ,	  common_lookup_column
  4  	 ,	  common_lookup_type
  5  	 FROM	  common_lookup
  6  	 ORDER BY 1, 2, 3;

Common         Common       Common             Common                           
Lookup Context Lookup Table Lookup Column      Lookup Type                      
-------------- ------------ ------------------ ------------------               
CONTACT                                        EMPLOYEE                         
CONTACT                                        CUSTOMER                         
ITEM                                           DVD_WIDE_SCREEN                  
ITEM                                           NINTENDO_GAMECUBE                
ITEM                                           BLU-RAY                          
ITEM                                           PLAYSTATION2                     
ITEM                                           DVD_FULL_SCREEN                  
ITEM                                           XBOX                             
MEMBER                                         VISA_CARD                        
MEMBER                                         MASTER_CARD                      
MEMBER                                         GROUP                            
MEMBER                                         INDIVIDUAL                       

Common         Common       Common             Common                           
Lookup Context Lookup Table Lookup Column      Lookup Type                      
-------------- ------------ ------------------ ------------------               
MEMBER                                         DISCOVER_CARD                    
MULTIPLE                                       WORK                             
MULTIPLE                                       HOME                             
SYSTEM_USER                                    INDIVIDUAL                       
SYSTEM_USER                                    COST_CENTER                      
SYSTEM_USER                                    SYSTEM_GROUP                     
SYSTEM_USER                                    DBA                              
SYSTEM_USER                                    SYSTEM_ADMIN                     

20 rows selected.

SQL> 
SQL> -- Migrate the COMMON_LOOKUP_CONTEXT column values
SQL> UPDATE COMMON_LOOKUP
  2  	 SET	COMMON_LOOKUP_TABLE = COMMON_LOOKUP_CONTEXT
  3  	 WHERE	COMMON_LOOKUP_CONTEXT != 'MULTIPLE';

18 rows updated.

SQL> 
SQL> -- Verify
SQL> 	 COLUMN common_lookup_context  FORMAT A14  HEADING "Common|Lookup Context"
SQL> 	 COLUMN common_lookup_table    FORMAT A12  HEADING "Common|Lookup Table"
SQL> 	 COLUMN common_lookup_column   FORMAT A18  HEADING "Common|Lookup Column"
SQL> 	 COLUMN common_lookup_type     FORMAT A18  HEADING "Common|Lookup Type"
SQL> 	 SELECT   common_lookup_context
  2  	 ,	  common_lookup_table
  3  	 ,	  common_lookup_column
  4  	 ,	  common_lookup_type
  5  	 FROM	  common_lookup
  6  	 ORDER BY 1, 2, 3;

Common         Common       Common             Common                           
Lookup Context Lookup Table Lookup Column      Lookup Type                      
-------------- ------------ ------------------ ------------------               
CONTACT        CONTACT                         EMPLOYEE                         
CONTACT        CONTACT                         CUSTOMER                         
ITEM           ITEM                            DVD_WIDE_SCREEN                  
ITEM           ITEM                            NINTENDO_GAMECUBE                
ITEM           ITEM                            BLU-RAY                          
ITEM           ITEM                            PLAYSTATION2                     
ITEM           ITEM                            DVD_FULL_SCREEN                  
ITEM           ITEM                            XBOX                             
MEMBER         MEMBER                          VISA_CARD                        
MEMBER         MEMBER                          MASTER_CARD                      
MEMBER         MEMBER                          GROUP                            
MEMBER         MEMBER                          INDIVIDUAL                       

Common         Common       Common             Common                           
Lookup Context Lookup Table Lookup Column      Lookup Type                      
-------------- ------------ ------------------ ------------------               
MEMBER         MEMBER                          DISCOVER_CARD                    
MULTIPLE                                       WORK                             
MULTIPLE                                       HOME                             
SYSTEM_USER    SYSTEM_USER                     INDIVIDUAL                       
SYSTEM_USER    SYSTEM_USER                     COST_CENTER                      
SYSTEM_USER    SYSTEM_USER                     SYSTEM_GROUP                     
SYSTEM_USER    SYSTEM_USER                     DBA                              
SYSTEM_USER    SYSTEM_USER                     SYSTEM_ADMIN                     

20 rows selected.

SQL> 
SQL> -- Update the COMMON_LOOKUP_TABLE column with the value of of 'ADDRESS'
SQL> UPDATE COMMON_LOOKUP
  2  	 SET	COMMON_LOOKUP_TABLE = 'ADDRESS'
  3  	 WHERE	COMMON_LOOKUP_CONTEXT = 'MULTIPLE';

2 rows updated.

SQL> 
SQL> -- Verify
SQL> 	 COLUMN common_lookup_context  FORMAT A14  HEADING "Common|Lookup Context"
SQL> 	 COLUMN common_lookup_table    FORMAT A12  HEADING "Common|Lookup Table"
SQL> 	 COLUMN common_lookup_column   FORMAT A18  HEADING "Common|Lookup Column"
SQL> 	 COLUMN common_lookup_type     FORMAT A18  HEADING "Common|Lookup Type"
SQL> 	 SELECT   common_lookup_context
  2  	 ,	  common_lookup_table
  3  	 ,	  common_lookup_column
  4  	 ,	  common_lookup_type
  5  	 FROM	  common_lookup
  6  	 ORDER BY 1, 2, 3;

Common         Common       Common             Common                           
Lookup Context Lookup Table Lookup Column      Lookup Type                      
-------------- ------------ ------------------ ------------------               
CONTACT        CONTACT                         EMPLOYEE                         
CONTACT        CONTACT                         CUSTOMER                         
ITEM           ITEM                            DVD_WIDE_SCREEN                  
ITEM           ITEM                            NINTENDO_GAMECUBE                
ITEM           ITEM                            BLU-RAY                          
ITEM           ITEM                            PLAYSTATION2                     
ITEM           ITEM                            DVD_FULL_SCREEN                  
ITEM           ITEM                            XBOX                             
MEMBER         MEMBER                          VISA_CARD                        
MEMBER         MEMBER                          MASTER_CARD                      
MEMBER         MEMBER                          GROUP                            
MEMBER         MEMBER                          INDIVIDUAL                       

Common         Common       Common             Common                           
Lookup Context Lookup Table Lookup Column      Lookup Type                      
-------------- ------------ ------------------ ------------------               
MEMBER         MEMBER                          DISCOVER_CARD                    
MULTIPLE       ADDRESS                         WORK                             
MULTIPLE       ADDRESS                         HOME                             
SYSTEM_USER    SYSTEM_USER                     INDIVIDUAL                       
SYSTEM_USER    SYSTEM_USER                     COST_CENTER                      
SYSTEM_USER    SYSTEM_USER                     SYSTEM_GROUP                     
SYSTEM_USER    SYSTEM_USER                     DBA                              
SYSTEM_USER    SYSTEM_USER                     SYSTEM_ADMIN                     

20 rows selected.

SQL> 
SQL> -- Create COMMON_LOOKUP_COLUMN column values
SQL> UPDATE COMMON_LOOKUP
  2  	 SET	COMMON_LOOKUP_COLUMN = COMMON_LOOKUP_CONTEXT||'_TYPE'
  3  	 WHERE	COMMON_LOOKUP_CONTEXT IN (
  4  	     SELECT TABLE_NAME FROM ALL_TABLES
  5  	 );

18 rows updated.

SQL> 
SQL> -- Verify
SQL> 	 COLUMN common_lookup_context  FORMAT A14  HEADING "Common|Lookup Context"
SQL> 	 COLUMN common_lookup_table    FORMAT A12  HEADING "Common|Lookup Table"
SQL> 	 COLUMN common_lookup_column   FORMAT A18  HEADING "Common|Lookup Column"
SQL> 	 COLUMN common_lookup_type     FORMAT A18  HEADING "Common|Lookup Type"
SQL> 	 SELECT   common_lookup_context
  2  	 ,	  common_lookup_table
  3  	 ,	  common_lookup_column
  4  	 ,	  common_lookup_type
  5  	 FROM	  common_lookup
  6  	 WHERE	  common_lookup_table IN
  7  		 (SELECT table_name
  8  		 FROM	user_tables)
  9  	 ORDER BY 1, 2, 3;

Common         Common       Common             Common                           
Lookup Context Lookup Table Lookup Column      Lookup Type                      
-------------- ------------ ------------------ ------------------               
CONTACT        CONTACT      CONTACT_TYPE       EMPLOYEE                         
CONTACT        CONTACT      CONTACT_TYPE       CUSTOMER                         
ITEM           ITEM         ITEM_TYPE          DVD_WIDE_SCREEN                  
ITEM           ITEM         ITEM_TYPE          NINTENDO_GAMECUBE                
ITEM           ITEM         ITEM_TYPE          BLU-RAY                          
ITEM           ITEM         ITEM_TYPE          PLAYSTATION2                     
ITEM           ITEM         ITEM_TYPE          DVD_FULL_SCREEN                  
ITEM           ITEM         ITEM_TYPE          XBOX                             
MEMBER         MEMBER       MEMBER_TYPE        VISA_CARD                        
MEMBER         MEMBER       MEMBER_TYPE        MASTER_CARD                      
MEMBER         MEMBER       MEMBER_TYPE        GROUP                            
MEMBER         MEMBER       MEMBER_TYPE        INDIVIDUAL                       

Common         Common       Common             Common                           
Lookup Context Lookup Table Lookup Column      Lookup Type                      
-------------- ------------ ------------------ ------------------               
MEMBER         MEMBER       MEMBER_TYPE        DISCOVER_CARD                    
MULTIPLE       ADDRESS                         WORK                             
MULTIPLE       ADDRESS                         HOME                             
SYSTEM_USER    SYSTEM_USER  SYSTEM_USER_TYPE   INDIVIDUAL                       
SYSTEM_USER    SYSTEM_USER  SYSTEM_USER_TYPE   COST_CENTER                      
SYSTEM_USER    SYSTEM_USER  SYSTEM_USER_TYPE   SYSTEM_GROUP                     
SYSTEM_USER    SYSTEM_USER  SYSTEM_USER_TYPE   DBA                              
SYSTEM_USER    SYSTEM_USER  SYSTEM_USER_TYPE   SYSTEM_ADMIN                     

20 rows selected.

SQL> 
SQL> -- Create COMMON_LOOKUP_COLUMN column values
SQL> UPDATE COMMON_LOOKUP
  2  	 SET	COMMON_LOOKUP_COLUMN = 'ADDRESS_TYPE'
  3  	 WHERE	COMMON_LOOKUP_CONTEXT = 'MULTIPLE';

2 rows updated.

SQL> 
SQL> -- Verify
SQL> 	 COLUMN common_lookup_context  FORMAT A14  HEADING "Common|Lookup Context"
SQL> 	 COLUMN common_lookup_table    FORMAT A12  HEADING "Common|Lookup Table"
SQL> 	 COLUMN common_lookup_column   FORMAT A18  HEADING "Common|Lookup Column"
SQL> 	 COLUMN common_lookup_type     FORMAT A18  HEADING "Common|Lookup Type"
SQL> 	 SELECT   common_lookup_context
  2  	 ,	  common_lookup_table
  3  	 ,	  common_lookup_column
  4  	 ,	  common_lookup_type
  5  	 FROM	  common_lookup
  6  	 WHERE	  common_lookup_table IN
  7  		 (SELECT table_name
  8  		 FROM	user_tables)
  9  	 ORDER BY 1, 2, 3;

Common         Common       Common             Common                           
Lookup Context Lookup Table Lookup Column      Lookup Type                      
-------------- ------------ ------------------ ------------------               
CONTACT        CONTACT      CONTACT_TYPE       EMPLOYEE                         
CONTACT        CONTACT      CONTACT_TYPE       CUSTOMER                         
ITEM           ITEM         ITEM_TYPE          DVD_WIDE_SCREEN                  
ITEM           ITEM         ITEM_TYPE          NINTENDO_GAMECUBE                
ITEM           ITEM         ITEM_TYPE          BLU-RAY                          
ITEM           ITEM         ITEM_TYPE          PLAYSTATION2                     
ITEM           ITEM         ITEM_TYPE          DVD_FULL_SCREEN                  
ITEM           ITEM         ITEM_TYPE          XBOX                             
MEMBER         MEMBER       MEMBER_TYPE        VISA_CARD                        
MEMBER         MEMBER       MEMBER_TYPE        MASTER_CARD                      
MEMBER         MEMBER       MEMBER_TYPE        GROUP                            
MEMBER         MEMBER       MEMBER_TYPE        INDIVIDUAL                       

Common         Common       Common             Common                           
Lookup Context Lookup Table Lookup Column      Lookup Type                      
-------------- ------------ ------------------ ------------------               
MEMBER         MEMBER       MEMBER_TYPE        DISCOVER_CARD                    
MULTIPLE       ADDRESS      ADDRESS_TYPE       WORK                             
MULTIPLE       ADDRESS      ADDRESS_TYPE       HOME                             
SYSTEM_USER    SYSTEM_USER  SYSTEM_USER_TYPE   INDIVIDUAL                       
SYSTEM_USER    SYSTEM_USER  SYSTEM_USER_TYPE   COST_CENTER                      
SYSTEM_USER    SYSTEM_USER  SYSTEM_USER_TYPE   SYSTEM_GROUP                     
SYSTEM_USER    SYSTEM_USER  SYSTEM_USER_TYPE   DBA                              
SYSTEM_USER    SYSTEM_USER  SYSTEM_USER_TYPE   SYSTEM_ADMIN                     

20 rows selected.

SQL> 
SQL> -- --------------------------------------------------------
SQL> --  Step #4 - Part #4
SQL> --  -------
SQL> --  Add two new rows to the COMMON_LOOKUP table to support the 'HOME' and 'WORK'
SQL> -- --------------------------------------------------------
SQL> INSERT INTO COMMON_LOOKUP
  2  	 VALUES (
  3  	     common_lookup_s1.nextval,
  4  	     ' ',
  5  	     'HOME',
  6  	     'Home Telephone',
  7  	     1,
  8  	     SYSDATE,
  9  	     1,
 10  	     SYSDATE,
 11  	     'TELEPHONE',
 12  	     'TELEPHONE_TYPE',
 13  	     NULL
 14  	 );

1 row created.

SQL> 
SQL> INSERT INTO COMMON_LOOKUP
  2  	 VALUES (
  3  	     common_lookup_s1.nextval,
  4  	     ' ',
  5  	     'WORK',
  6  	     'Work Telephone',
  7  	     1,
  8  	     SYSDATE,
  9  	     1,
 10  	     SYSDATE,
 11  	     'TELEPHONE',
 12  	     'TELEPHONE_TYPE',
 13  	     NULL
 14  	 );

1 row created.

SQL> 
SQL> -- Verify
SQL> COLUMN common_lookup_context  FORMAT A14  HEADING "Common|Lookup Context"
SQL> COLUMN common_lookup_table    FORMAT A12  HEADING "Common|Lookup Table"
SQL> COLUMN common_lookup_column   FORMAT A18  HEADING "Common|Lookup Column"
SQL> COLUMN common_lookup_type	   FORMAT A18  HEADING "Common|Lookup Type"
SQL> SELECT   common_lookup_context
  2  ,	      common_lookup_table
  3  ,	      common_lookup_column
  4  ,	      common_lookup_type
  5  FROM     common_lookup
  6  WHERE    common_lookup_table IN
  7  	       (SELECT table_name
  8  		FROM   user_tables)
  9  ORDER BY 1, 2, 3;

Common         Common       Common             Common                           
Lookup Context Lookup Table Lookup Column      Lookup Type                      
-------------- ------------ ------------------ ------------------               
               TELEPHONE    TELEPHONE_TYPE     WORK                             
               TELEPHONE    TELEPHONE_TYPE     HOME                             
CONTACT        CONTACT      CONTACT_TYPE       CUSTOMER                         
CONTACT        CONTACT      CONTACT_TYPE       EMPLOYEE                         
ITEM           ITEM         ITEM_TYPE          BLU-RAY                          
ITEM           ITEM         ITEM_TYPE          XBOX                             
ITEM           ITEM         ITEM_TYPE          PLAYSTATION2                     
ITEM           ITEM         ITEM_TYPE          DVD_WIDE_SCREEN                  
ITEM           ITEM         ITEM_TYPE          DVD_FULL_SCREEN                  
ITEM           ITEM         ITEM_TYPE          NINTENDO_GAMECUBE                
MEMBER         MEMBER       MEMBER_TYPE        VISA_CARD                        
MEMBER         MEMBER       MEMBER_TYPE        DISCOVER_CARD                    

Common         Common       Common             Common                           
Lookup Context Lookup Table Lookup Column      Lookup Type                      
-------------- ------------ ------------------ ------------------               
MEMBER         MEMBER       MEMBER_TYPE        GROUP                            
MEMBER         MEMBER       MEMBER_TYPE        INDIVIDUAL                       
MEMBER         MEMBER       MEMBER_TYPE        MASTER_CARD                      
MULTIPLE       ADDRESS      ADDRESS_TYPE       HOME                             
MULTIPLE       ADDRESS      ADDRESS_TYPE       WORK                             
SYSTEM_USER    SYSTEM_USER  SYSTEM_USER_TYPE   INDIVIDUAL                       
SYSTEM_USER    SYSTEM_USER  SYSTEM_USER_TYPE   COST_CENTER                      
SYSTEM_USER    SYSTEM_USER  SYSTEM_USER_TYPE   SYSTEM_GROUP                     
SYSTEM_USER    SYSTEM_USER  SYSTEM_USER_TYPE   DBA                              
SYSTEM_USER    SYSTEM_USER  SYSTEM_USER_TYPE   SYSTEM_ADMIN                     

22 rows selected.

SQL> 
SQL> -- --------------------------------------------------------
SQL> --  Step #4 - Part #5
SQL> --  -------
SQL> --  Fix the COMMON_LOOKUP table’s structure
SQL> -- --------------------------------------------------------
SQL> ALTER TABLE COMMON_LOOKUP
  2  	 DROP COLUMN COMMON_LOOKUP_CONTEXT;

Table altered.

SQL> 
SQL> ALTER TABLE COMMON_LOOKUP
  2  	 MODIFY (COMMON_LOOKUP_TABLE VARCHAR2(30) CONSTRAINT NN_COMMON_LOOKUP_TABLE NOT NULL);

Table altered.

SQL> 
SQL> ALTER TABLE COMMON_LOOKUP
  2  	 MODIFY (COMMON_LOOKUP_COLUMN VARCHAR2(30) CONSTRAINT NN_COMMON_LOOKUP_COLUMN NOT NULL);

Table altered.

SQL> 
SQL> -- Create new Indexes
SQL> CREATE INDEX CLOOKUP_U1
  2  	 ON COMMON_LOOKUP(COMMON_LOOKUP_TABLE, COMMON_LOOKUP_COLUMN, COMMON_LOOKUP_TYPE);

Index created.

SQL> 
SQL> -- Verify
SQL> SET NULL ''
SQL> COLUMN table_name	 FORMAT A14
SQL> COLUMN column_id	 FORMAT 9999
SQL> COLUMN column_name  FORMAT A22
SQL> COLUMN data_type	 FORMAT A12
SQL> SELECT   table_name
  2  ,	      column_id
  3  ,	      column_name
  4  ,	      CASE
  5  		WHEN nullable = 'N' THEN 'NOT NULL'
  6  		ELSE ''
  7  	      END AS nullable
  8  ,	      CASE
  9  		WHEN data_type IN ('CHAR','VARCHAR2','NUMBER') THEN
 10  		  data_type||'('||data_length||')'
 11  		ELSE
 12  		  data_type
 13  	      END AS data_type
 14  FROM     user_tab_columns
 15  WHERE    table_name = 'COMMON_LOOKUP'
 16  ORDER BY 2;

                         Column                                                 
Table Name     COLUMN_ID Name                   NULLABLE DATA_TYPE              
-------------- --------- ---------------------- -------- ------------           
COMMON_LOOKUP          1 COMMON_LOOKUP_ID       NOT NULL NUMBER(22)             
COMMON_LOOKUP          2 COMMON_LOOKUP_TYPE     NOT NULL VARCHAR2(30)           
COMMON_LOOKUP          3 COMMON_LOOKUP_MEANING  NOT NULL VARCHAR2(30)           
COMMON_LOOKUP          4 CREATED_BY             NOT NULL NUMBER(22)             
COMMON_LOOKUP          5 CREATION_DATE          NOT NULL DATE                   
COMMON_LOOKUP          6 LAST_UPDATED_BY        NOT NULL NUMBER(22)             
COMMON_LOOKUP          7 LAST_UPDATE_DATE       NOT NULL DATE                   
COMMON_LOOKUP          8 COMMON_LOOKUP_TABLE    NOT NULL VARCHAR2(30)           
COMMON_LOOKUP          9 COMMON_LOOKUP_COLUMN   NOT NULL VARCHAR2(30)           
COMMON_LOOKUP         10 COMMON_LOOKUP_CODE              VARCHAR2(30)           

10 rows selected.

SQL> 
SQL> -- Verify NN Constraints
SQL> COLUMN constraint_name   FORMAT A22  HEADING "Constraint Name"
SQL> COLUMN search_condition  FORMAT A36  HEADING "Search Condition"
SQL> COLUMN constraint_type   FORMAT A10  HEADING "Constraint|Type"
SQL> SELECT   uc.constraint_name
  2  ,	      uc.search_condition
  3  ,	      uc.constraint_type
  4  FROM     user_constraints uc INNER JOIN user_cons_columns ucc
  5  ON       uc.table_name = ucc.table_name
  6  AND      uc.constraint_name = ucc.constraint_name
  7  WHERE    uc.table_name = UPPER('common_lookup')
  8  AND      uc.constraint_type IN (UPPER('c'),UPPER('p'))
  9  ORDER BY uc.constraint_type DESC
 10  ,	      uc.constraint_name;

                                                            Constraint          
Constraint Name        Search Condition                     Type                
---------------------- ------------------------------------ ----------          
PK_CLOOKUP_1                                                P                   
NN_CLOOKUP_2           "COMMON_LOOKUP_TYPE" IS NOT NULL     C                   
NN_CLOOKUP_3           "COMMON_LOOKUP_MEANING" IS NOT NULL  C                   
NN_CLOOKUP_4           "CREATED_BY" IS NOT NULL             C                   
NN_CLOOKUP_5           "CREATION_DATE" IS NOT NULL          C                   
NN_CLOOKUP_6           "LAST_UPDATED_BY" IS NOT NULL        C                   
NN_CLOOKUP_7           "LAST_UPDATE_DATE" IS NOT NULL       C                   
NN_COMMON_LOOKUP_COLUM "COMMON_LOOKUP_COLUMN" IS NOT NULL   C                   
N                                                                               
                                                                                
NN_COMMON_LOOKUP_TABLE "COMMON_LOOKUP_TABLE" IS NOT NULL    C                   

9 rows selected.

SQL> 
SQL> -- Verify Natural Key Index
SQL> COLUMN sequence_name   FORMAT A22 HEADING "Sequence Name"
SQL> COLUMN column_position FORMAT 999 HEADING "Column|Position"
SQL> COLUMN column_name     FORMAT A22 HEADING "Column|Name"
SQL> SELECT   ui.index_name
  2  ,	      uic.column_position
  3  ,	      uic.column_name
  4  FROM     user_indexes ui INNER JOIN user_ind_columns uic
  5  ON       ui.index_name = uic.index_name
  6  AND      ui.table_name = uic.table_name
  7  WHERE    ui.table_name = UPPER('common_lookup')
  8  ORDER BY ui.index_name
  9  ,	      uic.column_position;

                       Column Column                                            
Index Name           Position Name                                              
-------------------- -------- ----------------------                            
CLOOKUP_U1                  1 COMMON_LOOKUP_TABLE                               
CLOOKUP_U1                  2 COMMON_LOOKUP_COLUMN                              
CLOOKUP_U1                  3 COMMON_LOOKUP_TYPE                                
PK_CLOOKUP_1                1 COMMON_LOOKUP_ID                                  

4 rows selected.

SQL> 
SQL> -- --------------------------------------------------------
SQL> --  Step #4 - Part #6
SQL> --  -------
SQL> --  Update incorrect foreign key values in the telephone table.
SQL> -- --------------------------------------------------------
SQL> 
SQL> -- Find obsolete values
SQL> SELECT COMMON_LOOKUP_ID
  2  FROM   COMMON_LOOKUP
  3  WHERE  COMMON_LOOKUP_TABLE = 'ADDRESS'
  4  AND    COMMON_LOOKUP_TYPE = 'HOME';

 MEMBER                                                                         
 LOOKUP                                                                         
   ID #                                                                         
-------                                                                         
   1008                                                                         

1 row selected.

SQL> 
SQL> -- Correct values
SQL> SELECT COMMON_LOOKUP_ID
  2  FROM   COMMON_LOOKUP
  3  WHERE  COMMON_LOOKUP_TABLE = 'TELEPHONE'
  4  AND    COMMON_LOOKUP_TYPE = 'HOME';

 MEMBER                                                                         
 LOOKUP                                                                         
   ID #                                                                         
-------                                                                         
   1016                                                                         

1 row selected.

SQL> 
SQL> -- Update
SQL> UPDATE TELEPHONE
  2  	 SET TELEPHONE_TYPE = (
  3  	     SELECT COMMON_LOOKUP_ID
  4  	     FROM   COMMON_LOOKUP
  5  	     WHERE  COMMON_LOOKUP_TABLE = 'TELEPHONE'
  6  	     AND    COMMON_LOOKUP_TYPE = 'HOME'
  7  	 )
  8  	 WHERE TELEPHONE_TYPE = (
  9  	     SELECT COMMON_LOOKUP_ID
 10  	     FROM   COMMON_LOOKUP
 11  	     WHERE  COMMON_LOOKUP_TABLE = 'ADDRESS'
 12  	     AND    COMMON_LOOKUP_TYPE = 'HOME'
 13  	 );

15 rows updated.

SQL> 
SQL> UPDATE TELEPHONE
  2  	 SET TELEPHONE_TYPE = (
  3  	     SELECT COMMON_LOOKUP_ID
  4  	     FROM   COMMON_LOOKUP
  5  	     WHERE  COMMON_LOOKUP_TABLE = 'TELEPHONE'
  6  	     AND    COMMON_LOOKUP_TYPE = 'WORK'
  7  	 )
  8  	 WHERE TELEPHONE_TYPE = (
  9  	     SELECT COMMON_LOOKUP_ID
 10  	     FROM   COMMON_LOOKUP
 11  	     WHERE  COMMON_LOOKUP_TABLE = 'ADDRESS'
 12  	     AND    COMMON_LOOKUP_TYPE = 'WORK'
 13  	 );

0 rows updated.

SQL> 
SQL> -- Verify
SQL> COLUMN common_lookup_table  FORMAT A14 HEADING "Common|Lookup Table"
SQL> COLUMN common_lookup_column FORMAT A14 HEADING "Common|Lookup Column"
SQL> COLUMN common_lookup_type	 FORMAT A8  HEADING "Common|Lookup|Type"
SQL> COLUMN count_dependent	 FORMAT 999 HEADING "Count of|Foreign|Keys"
SQL> COLUMN count_lookup	 FORMAT 999 HEADING "Count of|Primary|Keys"
SQL> SELECT   cl.common_lookup_table
  2  ,	      cl.common_lookup_column
  3  ,	      cl.common_lookup_type
  4  ,	      COUNT(a.address_id) AS count_dependent
  5  ,	      COUNT(DISTINCT cl.common_lookup_table) AS count_lookup
  6  FROM     address a RIGHT JOIN common_lookup cl
  7  ON       a.address_type = cl.common_lookup_id
  8  WHERE    cl.common_lookup_table = 'ADDRESS'
  9  AND      cl.common_lookup_column = 'ADDRESS_TYPE'
 10  AND      cl.common_lookup_type IN ('HOME','WORK')
 11  GROUP BY cl.common_lookup_table
 12  ,	      cl.common_lookup_column
 13  ,	      cl.common_lookup_type
 14  UNION
 15  SELECT   cl.common_lookup_table
 16  ,	      cl.common_lookup_column
 17  ,	      cl.common_lookup_type
 18  ,	      COUNT(t.telephone_id) AS count_dependent
 19  ,	      COUNT(DISTINCT cl.common_lookup_table) AS count_lookup
 20  FROM     telephone t RIGHT JOIN common_lookup cl
 21  ON       t.telephone_type = cl.common_lookup_id
 22  WHERE    cl.common_lookup_table = 'TELEPHONE'
 23  AND      cl.common_lookup_column = 'TELEPHONE_TYPE'
 24  AND      cl.common_lookup_type IN ('HOME','WORK')
 25  GROUP BY cl.common_lookup_table
 26  ,	      cl.common_lookup_column
 27  ,	      cl.common_lookup_type;

                              Common   Count of Count of                        
Common         Common         Lookup    Foreign  Primary                        
Lookup Table   Lookup Column  Type         Keys     Keys                        
-------------- -------------- -------- -------- --------                        
ADDRESS        ADDRESS_TYPE   HOME           15        1                        
ADDRESS        ADDRESS_TYPE   WORK            0        1                        
TELEPHONE      TELEPHONE_TYPE HOME           15        1                        
TELEPHONE      TELEPHONE_TYPE WORK            0        1                        

4 rows selected.

SQL> 
SQL> -- Commit changes to DB.
SQL> COMMIT;

Commit complete.

SQL> 
SQL> SPOOL OFF
