SQL> 
SQL> -- --------------------------------------------------------
SQL> --  Step #1
SQL> --  --------
SQL> --   Display the rows in the member and contact tables.
SQL> -- --------------------------------------------------------
SQL> 
SQL> COL member_lab_id		 FORMAT 9999  HEADING "Member|ID #"
SQL> COL members	     FORMAT 9999  HEADING "Member|#"
SQL> COL common_lookup_type  FORMAT A12   HEADING "Common|Lookup Type"
SQL> SELECT   m.member_lab_id
  2  ,	      COUNT(contact_lab_id) AS MEMBERS
  3  ,	      cl.common_lookup_type
  4  FROM     member_lab m INNER JOIN contact_lab c
  5  ON       m.member_lab_id = c.member_lab_id INNER JOIN common_lookup_lab cl
  6  ON       m.member_type = cl.common_lookup_lab_id
  7  GROUP BY m.member_lab_id
  8  ,	      m.member_type
  9  ,	      cl.common_lookup_lab_id
 10  ,	      cl.common_lookup_type
 11  ORDER BY m.member_lab_id;

Member Member Common                                                            
  ID #      # Lookup Type                                                       
------ ------ ------------                                                      
  1001      2 GROUP                                                             
  1002      2 GROUP                                                             
  1003      3 GROUP                                                             
  1004      1 INDIVIDUAL                                                        
  1005      1 INDIVIDUAL                                                        
  1006      1 INDIVIDUAL                                                        
  1007      1 INDIVIDUAL                                                        
  1008      1 INDIVIDUAL                                                        

8 rows selected.

SQL> 
SQL> -- --------------------------------------------------------
SQL> --  Step #2
SQL> --  --------
SQL> --   Create a view .
SQL> -- --------------------------------------------------------
SQL> CREATE OR REPLACE VIEW current_rental_lab AS
  2    SELECT	m.account_number
  3    ,	c.last_name || ', ' || c.first_name
  4    ||	CASE
  5  		  WHEN c.middle_name IS NOT NULL THEN ' ' || SUBSTR(c.middle_name,1,1)
  6  		END AS full_name
  7    ,	i.item_title AS title
  8    ,	i.item_subtitle AS subtitle
  9    ,	SUBSTR(cl.common_lookup_meaning,1,3) AS product
 10    ,	r.check_out_date
 11    ,	r.return_date
 12    FROM	member_lab m INNER JOIN contact_lab c ON m.member_lab_id = c.member_lab_id INNER JOIN
 13  		rental_lab r ON c.contact_lab_id = r.customer_id INNER JOIN
 14  		rental_item_lab ri ON r.rental_lab_id = ri.rental_lab_id INNER JOIN
 15  		item_lab i ON ri.item_lab_id = i.item_lab_id INNER JOIN
 16  		common_lookup_lab cl ON i.item_type = cl.common_lookup_lab_id
 17    ORDER BY 1, 2, 3;

View created.

SQL> 
SQL> -- --------------------------------------------------------
SQL> --  Step #3
SQL> --  --------
SQL> --   Display the content of a view .
SQL> -- --------------------------------------------------------
SQL> COL full_name	 FORMAT A16  HEADING "Name|(Last, First MI)"
SQL> COL title		 FORMAT A30  HEADING "Item Title"
SQL> COL check_out_date  FORMAT A11  HEADING "Check|Out|Date"
SQL> COL return_date	 FORMAT A11  HEADING "Return|Date"
SQL> SELECT   cr.full_name
  2  ,	      cr.title
  3  ,	      cr.check_out_date
  4  ,	      cr.return_date
  5  FROM     current_rental_lab cr;

                                                Check                           
Name                                            Out         Return              
(Last, First MI) Item Title                     Date        Date                
---------------- ------------------------------ ----------- -----------         
Winn, Brian      RoboCop                        13-OCT-18   18-OCT-18           
Winn, Brian      The Hunt for Red October       13-OCT-18   18-OCT-18           
Vizquel, Doreen  Camelot                        13-OCT-18   18-OCT-18           
Vizquel, Doreen  I Remember Mama                13-OCT-18   18-OCT-18           
Vizquel, Oscar   Star Wars I                    13-OCT-18   18-OCT-18           
Vizquel, Oscar   Star Wars II                   13-OCT-18   18-OCT-18           
Vizquel, Oscar   Star Wars III                  13-OCT-18   18-OCT-18           
Sweeney, Ian M   Cars                           13-OCT-18   18-OCT-18           
Sweeney, Meaghan Hook                           13-OCT-18   18-OCT-18           

9 rows selected.

SQL> 
SQL> -- ------------------------------------------------------------------
SQL> --  Close log file.
SQL> -- ------------------------------------------------------------------
SQL> SPOOL OFF
