SQL> 
SQL> -- --------------------------------------------------------
SQL> --  Step #1
SQL> --  -------
SQL> --  Section A
SQL> -- --------------------------------------------------------
SQL> SELECT MEMBER_ID, CONTACT_ID
  2  	 FROM MEMBER
  3  	 INNER JOIN CONTACT
  4  	 USING (MEMBER_ID);

Member                                                                          
  ID # CONTACT_ID                                                               
------ ----------                                                               
  1001       1001                                                               
  1001       1002                                                               
  1002       1003                                                               
  1002       1004                                                               
  1003       1005                                                               
  1003       1006                                                               
  1003       1007                                                               
  1004       1008                                                               
  1005       1009                                                               
  1006       1010                                                               
  1007       1011                                                               
  1008       1012                                                               

12 rows selected.

SQL> 
SQL> -- --------------------------------------------------------
SQL> --  Step #1
SQL> --  -------
SQL> --  Section B
SQL> -- --------------------------------------------------------
SQL> SELECT M.MEMBER_ID, C.CONTACT_ID
  2  	 FROM MEMBER M, CONTACT C
  3  	 WHERE M.MEMBER_ID = C.MEMBER_ID;

Member                                                                          
  ID # CONTACT_ID                                                               
------ ----------                                                               
  1001       1001                                                               
  1001       1002                                                               
  1002       1003                                                               
  1002       1004                                                               
  1003       1005                                                               
  1003       1006                                                               
  1003       1007                                                               
  1004       1008                                                               
  1005       1009                                                               
  1006       1010                                                               
  1007       1011                                                               
  1008       1012                                                               

12 rows selected.

SQL> 
SQL> -- --------------------------------------------------------
SQL> --  Step #1
SQL> --  -------
SQL> --  Section C
SQL> -- --------------------------------------------------------
SQL> SELECT CONTACT_ID, ADDRESS_ID
  2  	 FROM CONTACT
  3  	 INNER JOIN ADDRESS
  4  	 USING (CONTACT_ID);

CONTACT_ID ADDRESS_ID                                                           
---------- ----------                                                           
      1001       1001                                                           
      1002       1002                                                           
      1003       1003                                                           
      1004       1004                                                           
      1005       1005                                                           
      1006       1006                                                           
      1007       1007                                                           
      1008       1008                                                           
      1009       1009                                                           
      1010       1010                                                           
      1011       1011                                                           
      1012       1012                                                           

12 rows selected.

SQL> 
SQL> -- --------------------------------------------------------
SQL> --  Step #1
SQL> --  -------
SQL> --  Section D
SQL> -- --------------------------------------------------------
SQL> SELECT C.CONTACT_ID, A.ADDRESS_ID
  2  	 FROM CONTACT C, ADDRESS A
  3  	 WHERE C.CONTACT_ID = A.CONTACT_ID;

CONTACT_ID ADDRESS_ID                                                           
---------- ----------                                                           
      1001       1001                                                           
      1002       1002                                                           
      1003       1003                                                           
      1004       1004                                                           
      1005       1005                                                           
      1006       1006                                                           
      1007       1007                                                           
      1008       1008                                                           
      1009       1009                                                           
      1010       1010                                                           
      1011       1011                                                           
      1012       1012                                                           

12 rows selected.

SQL> 
SQL> -- --------------------------------------------------------
SQL> --  Step #1
SQL> --  -------
SQL> --  Section E
SQL> -- --------------------------------------------------------
SQL> SELECT ADDRESS_ID, STREET_ADDRESS_ID
  2  	 FROM ADDRESS
  3  	 INNER JOIN STREET_ADDRESS
  4  	 USING (ADDRESS_ID);

ADDRESS_ID STREET_ADDRESS_ID                                                    
---------- -----------------                                                    
      1001              1001                                                    
      1002              1002                                                    
      1003              1003                                                    
      1004              1004                                                    
      1005              1005                                                    
      1006              1006                                                    
      1007              1007                                                    
      1008              1008                                                    
      1009              1009                                                    
      1010              1010                                                    
      1011              1011                                                    
      1012              1012                                                    

12 rows selected.

SQL> 
SQL> -- --------------------------------------------------------
SQL> --  Step #1
SQL> --  -------
SQL> --  Section F
SQL> -- --------------------------------------------------------
SQL> SELECT A.ADDRESS_ID, S.STREET_ADDRESS_ID
  2  	 FROM ADDRESS A, STREET_ADDRESS S
  3  	 WHERE A.ADDRESS_ID = S.ADDRESS_ID;

ADDRESS_ID STREET_ADDRESS_ID                                                    
---------- -----------------                                                    
      1001              1001                                                    
      1002              1002                                                    
      1003              1003                                                    
      1004              1004                                                    
      1005              1005                                                    
      1006              1006                                                    
      1007              1007                                                    
      1008              1008                                                    
      1009              1009                                                    
      1010              1010                                                    
      1011              1011                                                    
      1012              1012                                                    

12 rows selected.

SQL> 
SQL> -- --------------------------------------------------------
SQL> --  Step #1
SQL> --  -------
SQL> --  Section H
SQL> -- --------------------------------------------------------
SQL> SELECT ADDRESS_ID, TELEPHONE_ID
  2  	 FROM ADDRESS
  3  	 INNER JOIN TELEPHONE
  4  	 USING (ADDRESS_ID);

ADDRESS_ID TELEPHONE_ID                                                         
---------- ------------                                                         
      1001         1001                                                         
      1002         1002                                                         
      1003         1003                                                         
      1004         1004                                                         
      1005         1005                                                         
      1006         1006                                                         
      1007         1007                                                         
      1008         1008                                                         
      1009         1009                                                         
      1010         1010                                                         
      1011         1011                                                         
      1012         1012                                                         

12 rows selected.

SQL> 
SQL> -- --------------------------------------------------------
SQL> --  Step #1
SQL> --  -------
SQL> --  Section A
SQL> -- --------------------------------------------------------
SQL> SELECT A.ADDRESS_ID, T.TELEPHONE_ID
  2  	 FROM ADDRESS A, TELEPHONE T
  3  	 WHERE A.ADDRESS_ID = T.ADDRESS_ID;

ADDRESS_ID TELEPHONE_ID                                                         
---------- ------------                                                         
      1001         1001                                                         
      1002         1002                                                         
      1003         1003                                                         
      1004         1004                                                         
      1005         1005                                                         
      1006         1006                                                         
      1007         1007                                                         
      1008         1008                                                         
      1009         1009                                                         
      1010         1010                                                         
      1011         1011                                                         
      1012         1012                                                         

12 rows selected.

SQL> 
SQL> -- --------------------------------------------------------
SQL> --  Step #2
SQL> --  -------
SQL> --  Section A
SQL> -- --------------------------------------------------------
SQL> SELECT C.CONTACT_ID, S.SYSTEM_USER_ID
  2  	 FROM CONTACT C
  3  	 INNER JOIN SYSTEM_USER S
  4  	 ON C.CREATED_BY = S.SYSTEM_USER_ID;

           System                                                               
             User                                                               
CONTACT_ID   ID #                                                               
---------- ------                                                               
      1001      1                                                               
      1002      1                                                               
      1003      1                                                               
      1004      1                                                               
      1005      1                                                               
      1006      1                                                               
      1007      1                                                               
      1008   1001                                                               
      1009   1001                                                               
      1010   1001                                                               
      1011   1001                                                               
      1012   1001                                                               

12 rows selected.

SQL> 
SQL> -- --------------------------------------------------------
SQL> --  Step #2
SQL> --  -------
SQL> --  Section B
SQL> -- --------------------------------------------------------
SQL> SELECT C.CONTACT_ID, S.SYSTEM_USER_ID
  2  	 FROM CONTACT C, SYSTEM_USER S
  3  	 WHERE C.CREATED_BY = S.SYSTEM_USER_ID;

           System                                                               
             User                                                               
CONTACT_ID   ID #                                                               
---------- ------                                                               
      1001      1                                                               
      1002      1                                                               
      1003      1                                                               
      1004      1                                                               
      1005      1                                                               
      1006      1                                                               
      1007      1                                                               
      1008   1001                                                               
      1009   1001                                                               
      1010   1001                                                               
      1011   1001                                                               
      1012   1001                                                               

12 rows selected.

SQL> 
SQL> -- --------------------------------------------------------
SQL> --  Step #2
SQL> --  -------
SQL> --  Section C
SQL> -- --------------------------------------------------------
SQL> SELECT C.CONTACT_ID, S.SYSTEM_USER_ID
  2  	 FROM CONTACT C
  3  	 INNER JOIN SYSTEM_USER S
  4  	 ON C.LAST_UPDATED_BY = S.SYSTEM_USER_ID;

           System                                                               
             User                                                               
CONTACT_ID   ID #                                                               
---------- ------                                                               
      1001      1                                                               
      1002      1                                                               
      1003      1                                                               
      1004      1                                                               
      1005      1                                                               
      1006      1                                                               
      1007      1                                                               
      1008   1001                                                               
      1009   1001                                                               
      1010   1001                                                               
      1011   1001                                                               
      1012   1001                                                               

12 rows selected.

SQL> 
SQL> -- --------------------------------------------------------
SQL> --  Step #2
SQL> --  -------
SQL> --  Section D
SQL> -- --------------------------------------------------------
SQL> SELECT C.CONTACT_ID, S.SYSTEM_USER_ID
  2  	 FROM CONTACT C, SYSTEM_USER S
  3  	 WHERE C.LAST_UPDATED_BY = S.SYSTEM_USER_ID;

           System                                                               
             User                                                               
CONTACT_ID   ID #                                                               
---------- ------                                                               
      1001      1                                                               
      1002      1                                                               
      1003      1                                                               
      1004      1                                                               
      1005      1                                                               
      1006      1                                                               
      1007      1                                                               
      1008   1001                                                               
      1009   1001                                                               
      1010   1001                                                               
      1011   1001                                                               
      1012   1001                                                               

12 rows selected.

SQL> 
SQL> -- --------------------------------------------------------
SQL> --  Step #3
SQL> --  -------
SQL> --  Section A
SQL> -- --------------------------------------------------------
SQL> COL system_user_id  FORMAT 999999	HEADING "System|User|ID #|--------|Table #1"
SQL> COL created_by	 FORMAT 999999	HEADING "Created|By|ID #|--------|Table #1"
SQL> COL system_user_pk  FORMAT 999999	HEADING "System|User|ID #|--------|Table #2"
SQL> SELECT SU1.SYSTEM_USER_ID, SU2.CREATED_BY, SU3.SYSTEM_USER_ID system_user_pk
  2  	 FROM SYSTEM_USER SU1
  3  	 INNER JOIN SYSTEM_USER SU2
  4  	 ON SU1.SYSTEM_USER_ID = SU2.SYSTEM_USER_ID
  5  	 INNER JOIN SYSTEM_USER SU3
  6  	 ON SU2.CREATED_BY = SU3.SYSTEM_USER_ID;

  System  Created   System                                                      
    User       By     User                                                      
    ID #     ID #     ID #                                                      
-------- -------- --------                                                      
Table #1 Table #1 Table #2                                                      
-------- -------- --------                                                      
       1        1        1                                                      
    1001        1        1                                                      
    1002        1        1                                                      

3 rows selected.

SQL> 
SQL> -- --------------------------------------------------------
SQL> --  Step #3
SQL> --  -------
SQL> --  Section B
SQL> -- --------------------------------------------------------
SQL> COL system_user_id  FORMAT 999999	HEADING "System|User|ID #|--------|Table #1"
SQL> COL last_updated_by  FORMAT 999999  HEADING "Last|Updated|By|ID #|--------|Table #1"
SQL> COL system_user_pk  FORMAT 999999	HEADING "System|User|ID #|--------|Table #2"
SQL> SELECT SU1.SYSTEM_USER_ID, SU2.LAST_UPDATED_BY, SU3.SYSTEM_USER_ID system_user_pk
  2  	 FROM SYSTEM_USER SU1
  3  	 INNER JOIN SYSTEM_USER SU2
  4  	 ON SU1.SYSTEM_USER_ID = SU2.SYSTEM_USER_ID
  5  	 INNER JOIN SYSTEM_USER SU3
  6  	 ON SU2.LAST_UPDATED_BY = SU3.SYSTEM_USER_ID;

             Last                                                               
  System  Updated   System                                                      
    User       By     User                                                      
    ID #     ID #     ID #                                                      
-------- -------- --------                                                      
Table #1 Table #1 Table #2                                                      
-------- -------- --------                                                      
       1        1        1                                                      
    1001        1        1                                                      
    1002        1        1                                                      

3 rows selected.

SQL> 
SQL> -- --------------------------------------------------------
SQL> --  Step #3
SQL> --  -------
SQL> --  Section C
SQL> -- --------------------------------------------------------
SQL> COL user_id	FORMAT 999999  HEADING "System|User|ID #|--------|Table #1"
SQL> COL user_name	FORMAT A8      HEADING "System|User|Name|--------|Table #1"
SQL> COL cby_user_id	FORMAT 999999  HEADING "System|User|ID #|--------|Table #2"
SQL> COL cby_user_name	FORMAT A8      HEADING "System|User|Name|--------|Table #2"
SQL> COL lby_user_id	FORMAT 999999  HEADING "System|User|ID #|--------|Table #3"
SQL> COL lby_user_name	FORMAT A8      HEADING "System|User|Name|--------|Table #3"
SQL> SELECT SU1.SYSTEM_USER_ID user_id, SU1.SYSTEM_USER_NAME user_name,
  2  	 SU2.CREATED_BY cby_user_id, SU2.SYSTEM_USER_NAME cby_user_name,
  3  	 SU3.LAST_UPDATED_BY lby_user_id, SU3.SYSTEM_USER_NAME lby_user_name
  4  	 FROM SYSTEM_USER SU1
  5  	 INNER JOIN SYSTEM_USER SU2
  6  	 ON SU2.SYSTEM_USER_ID = SU2.CREATED_BY
  7  	 INNER JOIN SYSTEM_USER SU3
  8  	 ON SU3.SYSTEM_USER_ID = SU3.LAST_UPDATED_BY;

  System System     System System     System System                             
    User User         User User         User User                               
    ID # Name         ID # Name         ID # Name                               
-------- -------- -------- -------- -------- --------                           
Table #1 Table #1 Table #2 Table #2 Table #3 Table #3                           
-------- -------- -------- -------- -------- --------                           
       1 SYSADMIN        1 SYSADMIN        1 SYSADMIN                           
    1001 DBA1            1 SYSADMIN        1 SYSADMIN                           
    1002 DBA2            1 SYSADMIN        1 SYSADMIN                           

3 rows selected.

SQL> 
SQL> -- --------------------------------------------------------
SQL> --  Step #4
SQL> --  -------
SQL> --  Unique Section
SQL> -- --------------------------------------------------------
SQL> COL rental_id	   FORMAT 999999  HEADING "Rental|Table|--------|Rental|ID #"
SQL> COL rental_item_rid   FORMAT 999999  HEADING "Rental Item|Table|-----------|Rental|ID #"
SQL> COL rental_item_iid   FORMAT 999999  HEADING "Rental Item|Table|-----------|Item|ID #"
SQL> COL item_id	   FORMAT 999999  HEADING "Item|Table|--------|Item|ID #"
SQL> SELECT RTL.RENTAL_ID rental_id, RIT.RENTAL_ID,
  2  	 RIT.ITEM_ID, I.ITEM_ID
  3  	 FROM RENTAL RTL
  4  	 INNER JOIN RENTAL_ITEM RIT
  5  	 ON RTL.RENTAL_ID = RIT.RENTAL_ID
  6  	 INNER JOIN ITEM I
  7  	 ON RIT.ITEM_ID = I.ITEM_ID;

  Rental   Rental     Item     Item                                             
   Table    Table    Table    Table                                             
-------- -------- -------- --------                                             
  Rental   Rental     Item     Item                                             
    ID #     ID #     ID #     ID #                                             
-------- -------- -------- --------                                             
    1001     1001     1002     1002                                             
    1001     1001     1004     1004                                             
    1001     1001     1005     1005                                             
    1002     1002     1016     1016                                             
    1002     1002     1021     1021                                             
    1003     1003     1019     1019                                             
    1004     1004     1014     1014                                             
    1005     1005     1007     1007                                             
    1005     1005     1001     1001                                             

9 rows selected.

SQL> ALTER TABLE RENTAL
  2  	 DROP CONSTRAINT NN_RENTAL_3;

Table altered.

SQL> 
SQL> -- --------------------------------------------------------
SQL> --  Step #5
SQL> --  -------
SQL> --  Invokes the required script for the step and runs the desired script
SQL> -- --------------------------------------------------------
SQL> @/home/student/Data/cit225/oracle/lab5/step5-1.sql
SQL> /* Conditionally drop non-equijoin sample tables. */
SQL> BEGIN
  2    FOR i IN (SELECT   object_name
  3  		 ,	  object_type
  4  		 FROM	  user_objects
  5  		 WHERE	  object_name IN ('DEPARTMENT','DEPARTMENT_S'
  6  				       ,'EMPLOYEE','EMPLOYEE_S'
  7  				       ,'SALARY','SALARY_S')
  8  		 ORDER BY object_type) LOOP
  9  	 IF i.object_type = 'TABLE' THEN
 10  	   EXECUTE IMMEDIATE 'DROP '||i.object_type||' '||i.object_name||' CASCADE CONSTRAINTS';
 11  	 ELSIF i.object_type = 'SEQUENCE' THEN
 12  	   EXECUTE IMMEDIATE 'DROP '||i.object_type||' '||i.object_name;
 13  	 END IF;
 14    END LOOP;
 15  END;
 16  /

PL/SQL procedure successfully completed.

SQL> 
SQL> /* Create department table. */
SQL> CREATE TABLE department
  2  ( department_id	NUMBER	CONSTRAINT department_pk PRIMARY KEY
  3  , department_name	VARCHAR2(20));

Table created.

SQL> 
SQL> /* Create a department_s sequence. */
SQL> CREATE SEQUENCE department_s;

Sequence created.

SQL> 
SQL> /* Create a salary table. */
SQL> CREATE TABLE salary
  2  ( salary_id	     NUMBER  CONSTRAINT salary_pk   PRIMARY KEY
  3  , effective_start_date  DATE    CONSTRAINT salary_nn1  NOT NULL
  4  , effective_end_date    DATE
  5  , salary		     NUMBER  CONSTRAINT salary_nn2  NOT NULL);

Table created.

SQL> 
SQL> /* Create a salary_s sequence. */
SQL> CREATE SEQUENCE salary_s;

Sequence created.

SQL> 
SQL> /* Create an employee table. */
SQL> CREATE TABLE employee
  2  ( employee_id    NUMBER	    CONSTRAINT employee_pk  PRIMARY KEY
  3  , department_id  NUMBER	    CONSTRAINT employee_nn1 NOT NULL
  4  , salary_id      NUMBER	    CONSTRAINT employee_nn2 NOT NULL
  5  , first_name     VARCHAR2(20)  CONSTRAINT employee_nn3 NOT NULL
  6  , last_name      VARCHAR2(20)  CONSTRAINT employee_nn4 NOT NULL
  7  , CONSTRAINT employee_fk FOREIGN KEY(employee_id) REFERENCES employee(employee_id));

Table created.

SQL> 
SQL> /* Create an employee_s sequence. */
SQL> CREATE SEQUENCE employee_s;

Sequence created.

SQL> 
SQL> 
SQL> /* Create an anonymous program to insert data. */
SQL> SET SERVEROUTPUT ON SIZE UNLIMITED
SQL> DECLARE
  2    /* Declare a collection of strings. */
  3    TYPE xname IS TABLE OF VARCHAR2(20);
  4  
  5    /* Declare a collection of numbers. */
  6    TYPE xsalary IS TABLE OF NUMBER;
  7  
  8    /* Local variable generated by a random foreign key. */
  9    lv_department_id  NUMBER;
 10    lv_salary_id	 NUMBER;
 11  
 12    /* A collection of first names. */
 13    lv_first XNAME := xname('Ann','Abbey','Amanda','Archie','Antonio','Arnold'
 14  			      ,'Barbara','Basil','Bernie','Beth','Brian','Bryce'
 15  			      ,'Carl','Carrie','Charlie','Christine','Corneilus','Crystal'
 16  			      ,'Dana','Darlene','Darren','Dave','Davi','Deidre'
 17  			      ,'Eamonn','Eberhard','Ecaterina','Ebony','Elana','Eric'
 18  			      ,'Fabian','Faith','Fernando','Farris','Fiana','Francesca'
 19  			      ,'Gabe','Gayle','Geoffrey','Gertrude','Grayson','Guy'
 20  			      ,'Harry','Harriet','Henry','Henrica','Herman','Hesper'
 21  			      ,'Ian','Ida','Iggy','Iliana','Imogene','Issac'
 22  			      ,'Jan','Jack','Jennifer','Jerry','Julian','June'
 23  			      ,'Kacey','Karen','Kaitlyn','Keith','Kevin','Kyle'
 24  			      ,'Laney','Lawrence','Leanne','Liam','Lois','Lynne'
 25  			      ,'Marcel','Marcia','Mark','Meagan','Mina','Michael'
 26  			      ,'Nancy','Naomi','Narcissa','Nasim','Nathaniel','Neal'
 27  			      ,'Obadiah','Odelia','Ohanna','Olaf','Olive','Oscar'
 28  			      ,'Paige','Palmer','Paris','Pascal','Patricia','Peter'
 29  			      ,'Qadir','Qasim','Quaid','Quant','Quince','Quinn'
 30  			      ,'Rachelle','Rafael','Raj','Randy','Ramona','Raven'
 31  			      ,'Savina','Sadie','Sally','Samuel','Saul','Santino'
 32  			      ,'Tabitha','Tami','Tanner','Thomas','Timothy','Tina'
 33  			      ,'Ugo','Ululani','Umberto','Una','Urbi','Ursula'
 34  			      ,'Val','Valerie','Valiant','Vanessa','Vaughn','Verna'
 35  			      ,'Wade','Wagner','Walden','Wanda','Wendy','Wilhelmina'
 36  			      ,'Xander','Xavier','Xena','Xerxes','Xia','Xylon'
 37  			      ,'Yana','Yancy','Yasmina','Yasmine','Yepa','Yeva'
 38  			      ,'Zacarias','Zach','Zahara','Zander','Zane');
 39  
 40    /* A collection of last names. */
 41    lv_last	XNAME := xname('Abernathy','Anderson','Baker','Barney'
 42  			      ,'Christensen','Cafferty','Davis','Donaldson'
 43  			      ,'Eckhart','Eidelman','Fern','Finkel','Frank','Frankel','Fromm'
 44  			      ,'Garfield','Geary','Harvey','Hamilton','Harwood'
 45  			      ,'Ibarguen','Imbezi','Lindblom','Lynstrom'
 46  			      ,'Martel','McKay','McLellen','Nagata','Noonan','Nunes'
 47  			      ,'O''Brien','Oakey','Patterson','Petersen','Pratel','Preston'
 48  			      ,'Qian','Queen','Ricafort','Richards','Roberts','Robertson'
 49  			      ,'Sampson','Simon','Tabacchi','Travis','Trevor','Tower'
 50  			      ,'Ubel','Urie','Vassen','Vanderbosch'
 51  			      ,'Wacha','Walcott','West','Worley','Xian','Xiang'
 52  			      ,'Yackley','Yaguchi','Zarbarsky','Zambelli');
 53  
 54    /* A collection of department names. */
 55    lv_dept	XNAME := xname('Accounting','Operations','Sales','Factory','Manufacturing');
 56  
 57    /* A colleciton of possible salaries. */
 58    lv_salary  XSALARY := xsalary( 36000, 42000, 48000, 52000, 64000 );
 59  
 60    /* Define a local function. */
 61    FUNCTION random_foreign_key RETURN INTEGER IS
 62  	 /* Declare a return variable. */
 63  	 lv_return_value  NUMBER;
 64    BEGIN
 65  	 /* Select a random number between 1 and 5 and assign it to a local variable. */
 66  	 SELECT CASE
 67  		  WHEN num = 0 THEN 5 ELSE num
 68  		END AS random_key
 69  	 INTO	lv_return_value
 70  	 FROM	(SELECT ROUND(dbms_random.value(1,1000)/100/2,0) num FROM dual) il;
 71  
 72  	 /* Return the random number. */
 73  	 RETURN lv_return_value;
 74    END random_foreign_key;
 75  
 76  BEGIN
 77    /* Insert departments. */
 78    FOR i IN 1..lv_dept.LAST LOOP
 79  	 INSERT INTO department
 80  	 ( department_id
 81  	 , department_name )
 82  	 VALUES
 83  	 ( department_s.NEXTVAL
 84  	 , lv_dept(i));
 85    END LOOP;
 86  
 87    /* Insert salary. */
 88    FOR i IN 1..lv_salary.LAST LOOP
 89  	 INSERT INTO salary
 90  	 ( salary_id
 91  	 , effective_start_date
 92  	 , salary )
 93  	 VALUES
 94  	 ( salary_s.NEXTVAL
 95  	 , TRUNC(SYSDATE) - 30
 96  	 , lv_salary(i));
 97    END LOOP;
 98  
 99    /* Insert random employees. */
100    FOR i IN 1..lv_first.LAST LOOP
101  	 FOR j IN 1..lv_last.LAST LOOP
102  	   /* Assign a random values to a local variable. */
103  	   lv_department_id := random_foreign_key;
104  	   lv_salary_id := random_foreign_key;
105  
106  	   /* Insert values into the employee table. */
107  	   INSERT INTO employee
108  	   ( employee_id
109  	   , department_id
110  	   , salary_id
111  	   , first_name
112  	   , last_name )
113  	   VALUES
114  	   ( employee_s.NEXTVAL
115  	   , lv_department_id
116  	   , lv_salary_id
117  	   , lv_first(i)
118  	   , lv_last(j));
119  	 END LOOP;
120    END LOOP;
121  
122    /* Commit the writes. */
123    COMMIT;
124  END;
125  /

PL/SQL procedure successfully completed.

SQL> 
SQL> -- Tests for the successful completion of step5-1.sql
SQL> SELECT   d.department_name, ROUND(AVG(s.salary),0) salary
  2  	 FROM	  employee e INNER JOIN department d
  3  	 ON	  e.department_id = d.department_id INNER JOIN salary s
  4  	 ON	  e.salary_id = s.salary_id
  5  	 GROUP BY d.department_name
  6  	 ORDER BY d.department_name;

DEPARTMENT_NAME          SALARY                                                 
-------------------- ----------                                                 
Accounting                48750                                                 
Factory                   48552                                                 
Manufacturing             48413                                                 
Operations                48489                                                 
Sales                     48368                                                 

5 rows selected.

SQL> 
SQL> @/home/student/Data/cit225/oracle/lab5/step5-2.sql
SQL> /* Conditionally drop the table. */
SQL> BEGIN
  2    FOR i IN (SELECT table_name
  3  		 FROM	user_tables
  4  		 WHERE	table_name = 'MOCK_CALENDAR') LOOP
  5  	 EXECUTE IMMEDIATE 'DROP TABLE '||i.table_name||' CASCADE CONSTRAINTS';
  6    END LOOP;
  7  END;
  8  /

PL/SQL procedure successfully completed.

SQL> 
SQL> /* Create a mock_calendar table. */
SQL> CREATE TABLE mock_calendar
  2  ( short_month  VARCHAR2(3)
  3  , long_month   VARCHAR2(9)
  4  , start_date   DATE
  5  , end_date     DATE );

Table created.

SQL> 
SQL> /* Seed the table with 10 years of data. */
SQL> DECLARE
  2    /* Create local collection data types. */
  3    TYPE smonth IS TABLE OF VARCHAR2(3);
  4    TYPE lmonth IS TABLE OF VARCHAR2(9);
  5  
  6    /* Declare month arrays. */
  7    short_month SMONTH := smonth('JAN','FEB','MAR','APR','MAY','JUN'
  8  				   ,'JUL','AUG','SEP','OCT','NOV','DEC');
  9    long_month  LMONTH := lmonth('January','February','March','April','May','June'
 10  				   ,'July','August','September','October','November','December');
 11  
 12    /* Declare base dates. */
 13    start_date DATE := '01-JAN-15';
 14    end_date   DATE := '31-JAN-15';
 15  
 16    /* Declare years. */
 17    years	  NUMBER := 4;
 18  
 19  BEGIN
 20  
 21    /* Loop through years and months. */
 22    FOR i IN 1..years LOOP
 23  	 FOR j IN 1..short_month.COUNT LOOP
 24  	   INSERT INTO mock_calendar VALUES
 25  	   ( short_month(j)
 26  	   , long_month(j)
 27  	   , add_months(start_date,(j-1)+(12*(i-1)))
 28  	   , add_months(end_date,(j-1)+(12*(i-1))));
 29  	 END LOOP;
 30    END LOOP;
 31  
 32    /* Commit the records. */
 33    COMMIT;
 34  END;
 35  /

PL/SQL procedure successfully completed.

SQL> 
SQL> -- Tests for the successful completion of step5-2.sql
SQL> /* Set output parameters. */
SQL> SET PAGESIZE 16
SQL> 
SQL> /* Format column output. */
SQL> COL short_month FORMAT A5 HEADING "Short|Month"
SQL> COL long_month  FORMAT A9 HEADING "Long|Month"
SQL> COL start_date  FORMAT A9 HEADING "Start|Date"
SQL> COL end_date    FORMAT A9 HEADING "End|Date"
SQL> 
SQL> /* Query the results from the table. */
SQL> SELECT * FROM mock_calendar;

Short Long      Start     End                                                   
Month Month     Date      Date                                                  
----- --------- --------- ---------                                             
JAN   January   01-JAN-15 31-JAN-15                                             
FEB   February  01-FEB-15 28-FEB-15                                             
MAR   March     01-MAR-15 31-MAR-15                                             
APR   April     01-APR-15 30-APR-15                                             
MAY   May       01-MAY-15 31-MAY-15                                             
JUN   June      01-JUN-15 30-JUN-15                                             
JUL   July      01-JUL-15 31-JUL-15                                             
AUG   August    01-AUG-15 31-AUG-15                                             
SEP   September 01-SEP-15 30-SEP-15                                             
OCT   October   01-OCT-15 31-OCT-15                                             
NOV   November  01-NOV-15 30-NOV-15                                             
DEC   December  01-DEC-15 31-DEC-15                                             

Short Long      Start     End                                                   
Month Month     Date      Date                                                  
----- --------- --------- ---------                                             
JAN   January   01-JAN-16 31-JAN-16                                             
FEB   February  01-FEB-16 29-FEB-16                                             
MAR   March     01-MAR-16 31-MAR-16                                             
APR   April     01-APR-16 30-APR-16                                             
MAY   May       01-MAY-16 31-MAY-16                                             
JUN   June      01-JUN-16 30-JUN-16                                             
JUL   July      01-JUL-16 31-JUL-16                                             
AUG   August    01-AUG-16 31-AUG-16                                             
SEP   September 01-SEP-16 30-SEP-16                                             
OCT   October   01-OCT-16 31-OCT-16                                             
NOV   November  01-NOV-16 30-NOV-16                                             
DEC   December  01-DEC-16 31-DEC-16                                             

Short Long      Start     End                                                   
Month Month     Date      Date                                                  
----- --------- --------- ---------                                             
JAN   January   01-JAN-17 31-JAN-17                                             
FEB   February  01-FEB-17 28-FEB-17                                             
MAR   March     01-MAR-17 31-MAR-17                                             
APR   April     01-APR-17 30-APR-17                                             
MAY   May       01-MAY-17 31-MAY-17                                             
JUN   June      01-JUN-17 30-JUN-17                                             
JUL   July      01-JUL-17 31-JUL-17                                             
AUG   August    01-AUG-17 31-AUG-17                                             
SEP   September 01-SEP-17 30-SEP-17                                             
OCT   October   01-OCT-17 31-OCT-17                                             
NOV   November  01-NOV-17 30-NOV-17                                             
DEC   December  01-DEC-17 31-DEC-17                                             

Short Long      Start     End                                                   
Month Month     Date      Date                                                  
----- --------- --------- ---------                                             
JAN   January   01-JAN-18 31-JAN-18                                             
FEB   February  01-FEB-18 28-FEB-18                                             
MAR   March     01-MAR-18 31-MAR-18                                             
APR   April     01-APR-18 30-APR-18                                             
MAY   May       01-MAY-18 31-MAY-18                                             
JUN   June      01-JUN-18 30-JUN-18                                             
JUL   July      01-JUL-18 31-JUL-18                                             
AUG   August    01-AUG-18 31-AUG-18                                             
SEP   September 01-SEP-18 30-SEP-18                                             
OCT   October   01-OCT-18 31-OCT-18                                             
NOV   November  01-NOV-18 30-NOV-18                                             
DEC   December  01-DEC-18 31-DEC-18                                             

48 rows selected.

SQL> 
SQL> -- The actual query we are supposed to modify and get working (WHERE clause)
SQL> SELECT   d.department_name, ROUND(AVG(s.salary),0) salary
  2  	 FROM employee e INNER JOIN department d
  3  	 ON e.department_id = d.department_id INNER JOIN salary s
  4  	 ON e.salary_id = s.salary_id
  5  	 WHERE NVL(effective_start_date, TRUNC(SYSDATE)+3) > TRUNC(SYSDATE) - 60
  6  	 AND NVL(effective_start_date, TRUNC(SYSDATE)+3) < TRUNC(SYSDATE) + 2
  7  	 GROUP BY d.department_name
  8  	 ORDER BY d.department_name;

DEPARTMENT_NAME          SALARY                                                 
-------------------- ----------                                                 
Accounting                48750                                                 
Factory                   48552                                                 
Manufacturing             48413                                                 
Operations                48489                                                 
Sales                     48368                                                 

5 rows selected.

SQL> 
SQL> SPOOL OFF
